<?xml version="1.0" encoding="utf-8"?>
<!DOCTYPE eagle SYSTEM "eagle.dtd">
<eagle version="9.6.2">
<drawing>
<settings>
<setting alwaysvectorfont="no"/>
<setting keepoldvectorfont="yes"/>
<setting verticaltext="up"/>
</settings>
<grid distance="0.05" unitdist="inch" unit="inch" style="lines" multiple="1" display="no" altdistance="0.005" altunitdist="inch" altunit="inch"/>
<layers>
<layer number="1" name="Top" color="4" fill="1" visible="yes" active="yes"/>
<layer number="2" name="Route2" color="1" fill="3" visible="no" active="no"/>
<layer number="3" name="Route3" color="4" fill="3" visible="no" active="no"/>
<layer number="14" name="Route14" color="1" fill="6" visible="no" active="no"/>
<layer number="15" name="Route15" color="4" fill="6" visible="no" active="no"/>
<layer number="16" name="Bottom" color="1" fill="1" visible="yes" active="yes"/>
<layer number="17" name="Pads" color="2" fill="1" visible="yes" active="yes"/>
<layer number="18" name="Vias" color="2" fill="1" visible="yes" active="yes"/>
<layer number="19" name="Unrouted" color="6" fill="1" visible="yes" active="yes"/>
<layer number="20" name="Dimension" color="15" fill="1" visible="yes" active="yes"/>
<layer number="21" name="tPlace" color="7" fill="1" visible="yes" active="yes"/>
<layer number="22" name="bPlace" color="7" fill="1" visible="yes" active="yes"/>
<layer number="23" name="tOrigins" color="15" fill="1" visible="yes" active="yes"/>
<layer number="24" name="bOrigins" color="15" fill="1" visible="yes" active="yes"/>
<layer number="25" name="tNames" color="7" fill="1" visible="yes" active="yes"/>
<layer number="26" name="bNames" color="7" fill="1" visible="yes" active="yes"/>
<layer number="27" name="tValues" color="7" fill="1" visible="yes" active="yes"/>
<layer number="28" name="bValues" color="7" fill="1" visible="yes" active="yes"/>
<layer number="29" name="tStop" color="7" fill="3" visible="no" active="yes"/>
<layer number="30" name="bStop" color="7" fill="6" visible="no" active="yes"/>
<layer number="31" name="tCream" color="7" fill="4" visible="no" active="yes"/>
<layer number="32" name="bCream" color="7" fill="5" visible="no" active="yes"/>
<layer number="33" name="tFinish" color="6" fill="3" visible="no" active="yes"/>
<layer number="34" name="bFinish" color="6" fill="6" visible="no" active="yes"/>
<layer number="35" name="tGlue" color="7" fill="4" visible="no" active="yes"/>
<layer number="36" name="bGlue" color="7" fill="5" visible="no" active="yes"/>
<layer number="37" name="tTest" color="7" fill="1" visible="no" active="yes"/>
<layer number="38" name="bTest" color="7" fill="1" visible="no" active="yes"/>
<layer number="39" name="tKeepout" color="4" fill="11" visible="yes" active="yes"/>
<layer number="40" name="bKeepout" color="1" fill="11" visible="yes" active="yes"/>
<layer number="41" name="tRestrict" color="4" fill="10" visible="yes" active="yes"/>
<layer number="42" name="bRestrict" color="1" fill="10" visible="yes" active="yes"/>
<layer number="43" name="vRestrict" color="2" fill="10" visible="yes" active="yes"/>
<layer number="44" name="Drills" color="7" fill="1" visible="no" active="yes"/>
<layer number="45" name="Holes" color="7" fill="1" visible="no" active="yes"/>
<layer number="46" name="Milling" color="3" fill="1" visible="no" active="yes"/>
<layer number="47" name="Measures" color="7" fill="1" visible="no" active="yes"/>
<layer number="48" name="Document" color="7" fill="1" visible="yes" active="yes"/>
<layer number="49" name="Reference" color="7" fill="1" visible="yes" active="yes"/>
<layer number="50" name="dxf" color="7" fill="1" visible="no" active="no"/>
<layer number="51" name="tDocu" color="7" fill="1" visible="yes" active="yes"/>
<layer number="52" name="bDocu" color="7" fill="1" visible="yes" active="yes"/>
<layer number="91" name="Nets" color="2" fill="1" visible="no" active="no"/>
<layer number="92" name="Busses" color="1" fill="1" visible="no" active="no"/>
<layer number="93" name="Pins" color="2" fill="1" visible="no" active="no"/>
<layer number="94" name="Symbols" color="4" fill="1" visible="no" active="no"/>
<layer number="95" name="Names" color="7" fill="1" visible="no" active="no"/>
<layer number="96" name="Values" color="7" fill="1" visible="no" active="no"/>
<layer number="97" name="Info" color="7" fill="1" visible="no" active="no"/>
<layer number="98" name="Guide" color="6" fill="1" visible="no" active="no"/>
<layer number="100" name="Muster" color="7" fill="1" visible="yes" active="yes"/>
<layer number="250" name="Descript" color="3" fill="1" visible="yes" active="yes"/>
<layer number="251" name="SMDround" color="12" fill="11" visible="yes" active="yes"/>
</layers>
<board>
<plain>
<wire x1="0" y1="0" x2="82.53" y2="0" width="0" layer="20"/>
<wire x1="82.53" y1="0" x2="82.53" y2="19.99" width="0" layer="20"/>
<wire x1="82.53" y1="19.99" x2="0" y2="19.99" width="0" layer="20"/>
<wire x1="0" y1="19.99" x2="0" y2="0" width="0" layer="20"/>
<dimension x1="53.34" y1="20.955" x2="29.21" y2="20.955" x3="41.275" y3="31.75" textsize="1.778" layer="20"/>
<dimension x1="0" y1="19.99" x2="82.53" y2="19.99" x3="41.265" y3="36.83" textsize="1.778" layer="20"/>
<dimension x1="0" y1="19.99" x2="0" y2="0" x3="-7.62" y3="9.995" textsize="1.778" layer="20"/>
<text x="57.023" y="3.048" size="1.27" layer="16" ratio="12" rot="MR0">VGA-Panel
V1.4 (C)2014
Matthias Heinrichs</text>
<text x="50.8" y="1.27" size="1.016" layer="21">v1.41 EDID fixed</text>
</plain>
<libraries>
<library name="con-harting-ml">
<description>&lt;b&gt;Harting  &amp; 3M Connectors&lt;/b&gt;&lt;p&gt;
Low profile connectors, straight&lt;p&gt;
&lt;author&gt;Created by librarian@cadsoft.de&lt;/author&gt;</description>
<packages>
<package name="ML14">
<description>&lt;b&gt;HARTING&lt;/b&gt;</description>
<wire x1="-11.43" y1="3.175" x2="11.43" y2="3.175" width="0.1524" layer="21"/>
<wire x1="11.43" y1="-3.175" x2="11.43" y2="3.175" width="0.1524" layer="21"/>
<wire x1="-11.43" y1="3.175" x2="-11.43" y2="-3.175" width="0.1524" layer="21"/>
<wire x1="-12.7" y1="4.445" x2="-11.43" y2="4.445" width="0.1524" layer="21"/>
<wire x1="12.7" y1="-4.445" x2="8.001" y2="-4.445" width="0.1524" layer="21"/>
<wire x1="12.7" y1="-4.445" x2="12.7" y2="4.445" width="0.1524" layer="21"/>
<wire x1="-12.7" y1="4.445" x2="-12.7" y2="-4.445" width="0.1524" layer="21"/>
<wire x1="11.43" y1="-3.175" x2="7.112" y2="-3.175" width="0.1524" layer="21"/>
<wire x1="2.032" y1="-2.413" x2="-2.032" y2="-2.413" width="0.1524" layer="21"/>
<wire x1="-2.032" y1="-3.175" x2="-2.032" y2="-2.413" width="0.1524" layer="21"/>
<wire x1="-2.032" y1="-3.175" x2="-11.43" y2="-3.175" width="0.1524" layer="21"/>
<wire x1="-2.032" y1="-3.175" x2="-2.032" y2="-3.429" width="0.1524" layer="21"/>
<wire x1="2.032" y1="-2.413" x2="2.032" y2="-3.175" width="0.1524" layer="21"/>
<wire x1="2.032" y1="-3.175" x2="2.032" y2="-3.429" width="0.1524" layer="21"/>
<wire x1="11.43" y1="4.445" x2="11.43" y2="4.699" width="0.1524" layer="21"/>
<wire x1="11.43" y1="4.699" x2="10.16" y2="4.699" width="0.1524" layer="21"/>
<wire x1="10.16" y1="4.445" x2="10.16" y2="4.699" width="0.1524" layer="21"/>
<wire x1="11.43" y1="4.445" x2="12.7" y2="4.445" width="0.1524" layer="21"/>
<wire x1="0.635" y1="4.699" x2="-0.635" y2="4.699" width="0.1524" layer="21"/>
<wire x1="0.635" y1="4.699" x2="0.635" y2="4.445" width="0.1524" layer="21"/>
<wire x1="0.635" y1="4.445" x2="10.16" y2="4.445" width="0.1524" layer="21"/>
<wire x1="-0.635" y1="4.699" x2="-0.635" y2="4.445" width="0.1524" layer="21"/>
<wire x1="-10.16" y1="4.699" x2="-11.43" y2="4.699" width="0.1524" layer="21"/>
<wire x1="-11.43" y1="4.699" x2="-11.43" y2="4.445" width="0.1524" layer="21"/>
<wire x1="-10.16" y1="4.699" x2="-10.16" y2="4.445" width="0.1524" layer="21"/>
<wire x1="-10.16" y1="4.445" x2="-0.635" y2="4.445" width="0.1524" layer="21"/>
<wire x1="4.699" y1="-4.445" x2="2.032" y2="-4.445" width="0.1524" layer="21"/>
<wire x1="2.032" y1="-4.445" x2="-2.032" y2="-4.445" width="0.1524" layer="21"/>
<wire x1="5.588" y1="-3.175" x2="5.588" y2="-3.429" width="0.1524" layer="21"/>
<wire x1="5.588" y1="-3.175" x2="2.032" y2="-3.175" width="0.1524" layer="21"/>
<wire x1="7.112" y1="-3.175" x2="7.112" y2="-3.429" width="0.1524" layer="21"/>
<wire x1="7.112" y1="-3.175" x2="5.588" y2="-3.175" width="0.1524" layer="21"/>
<wire x1="4.699" y1="-4.445" x2="5.08" y2="-3.937" width="0.1524" layer="21"/>
<wire x1="7.62" y1="-3.937" x2="8.001" y2="-4.445" width="0.1524" layer="21"/>
<wire x1="7.62" y1="-3.937" x2="7.112" y2="-3.937" width="0.1524" layer="21"/>
<wire x1="5.588" y1="-3.429" x2="2.032" y2="-3.429" width="0.0508" layer="21"/>
<wire x1="2.032" y1="-3.429" x2="2.032" y2="-4.445" width="0.1524" layer="21"/>
<wire x1="7.112" y1="-3.429" x2="11.684" y2="-3.429" width="0.0508" layer="21"/>
<wire x1="11.684" y1="-3.429" x2="11.684" y2="3.429" width="0.0508" layer="21"/>
<wire x1="11.684" y1="3.429" x2="-11.684" y2="3.429" width="0.0508" layer="21"/>
<wire x1="-11.684" y1="3.429" x2="-11.684" y2="-3.429" width="0.0508" layer="21"/>
<wire x1="-11.684" y1="-3.429" x2="-2.032" y2="-3.429" width="0.0508" layer="21"/>
<wire x1="-2.032" y1="-3.429" x2="-2.032" y2="-4.445" width="0.1524" layer="21"/>
<wire x1="5.588" y1="-3.429" x2="5.588" y2="-3.937" width="0.1524" layer="21"/>
<wire x1="5.588" y1="-3.937" x2="5.08" y2="-3.937" width="0.1524" layer="21"/>
<wire x1="7.112" y1="-3.429" x2="7.112" y2="-3.937" width="0.1524" layer="21"/>
<wire x1="7.112" y1="-3.937" x2="5.588" y2="-3.937" width="0.1524" layer="21"/>
<wire x1="-2.032" y1="-4.445" x2="-6.858" y2="-4.445" width="0.1524" layer="21"/>
<wire x1="-6.858" y1="-4.318" x2="-6.858" y2="-4.445" width="0.1524" layer="21"/>
<wire x1="-6.858" y1="-4.318" x2="-8.382" y2="-4.318" width="0.1524" layer="21"/>
<wire x1="-8.382" y1="-4.445" x2="-8.382" y2="-4.318" width="0.1524" layer="21"/>
<wire x1="-8.382" y1="-4.445" x2="-12.7" y2="-4.445" width="0.1524" layer="21"/>
<pad name="1" x="-7.62" y="-1.27" drill="0.9144" shape="octagon"/>
<pad name="2" x="-7.62" y="1.27" drill="0.9144" shape="octagon"/>
<pad name="3" x="-5.08" y="-1.27" drill="0.9144" shape="octagon"/>
<pad name="4" x="-5.08" y="1.27" drill="0.9144" shape="octagon"/>
<pad name="5" x="-2.54" y="-1.27" drill="0.9144" shape="octagon"/>
<pad name="6" x="-2.54" y="1.27" drill="0.9144" shape="octagon"/>
<pad name="7" x="0" y="-1.27" drill="0.9144" shape="octagon"/>
<pad name="8" x="0" y="1.27" drill="0.9144" shape="octagon"/>
<pad name="9" x="2.54" y="-1.27" drill="0.9144" shape="octagon"/>
<pad name="10" x="2.54" y="1.27" drill="0.9144" shape="octagon"/>
<pad name="11" x="5.08" y="-1.27" drill="0.9144" shape="octagon"/>
<pad name="12" x="5.08" y="1.27" drill="0.9144" shape="octagon"/>
<pad name="13" x="7.62" y="-1.27" drill="0.9144" shape="octagon"/>
<pad name="14" x="7.62" y="1.27" drill="0.9144" shape="octagon"/>
<text x="-12.7" y="5.08" size="1.778" layer="25" ratio="10">&gt;NAME</text>
<text x="0" y="5.08" size="1.778" layer="27" ratio="10">&gt;VALUE</text>
<text x="-1.016" y="-4.064" size="1.27" layer="21" ratio="10">14</text>
<text x="-10.16" y="-1.905" size="1.27" layer="21" ratio="10">1</text>
<text x="-10.16" y="0.635" size="1.27" layer="21" ratio="10">2</text>
<rectangle x1="7.366" y1="1.016" x2="7.874" y2="1.524" layer="51"/>
<rectangle x1="4.826" y1="1.016" x2="5.334" y2="1.524" layer="51"/>
<rectangle x1="4.826" y1="-1.524" x2="5.334" y2="-1.016" layer="51"/>
<rectangle x1="7.366" y1="-1.524" x2="7.874" y2="-1.016" layer="51"/>
<rectangle x1="-5.334" y1="1.016" x2="-4.826" y2="1.524" layer="51"/>
<rectangle x1="-7.874" y1="1.016" x2="-7.366" y2="1.524" layer="51"/>
<rectangle x1="-2.794" y1="1.016" x2="-2.286" y2="1.524" layer="51"/>
<rectangle x1="2.286" y1="1.016" x2="2.794" y2="1.524" layer="51"/>
<rectangle x1="-0.254" y1="1.016" x2="0.254" y2="1.524" layer="51"/>
<rectangle x1="-5.334" y1="-1.524" x2="-4.826" y2="-1.016" layer="51"/>
<rectangle x1="-7.874" y1="-1.524" x2="-7.366" y2="-1.016" layer="51"/>
<rectangle x1="-2.794" y1="-1.524" x2="-2.286" y2="-1.016" layer="51"/>
<rectangle x1="2.286" y1="-1.524" x2="2.794" y2="-1.016" layer="51"/>
<rectangle x1="-0.254" y1="-1.524" x2="0.254" y2="-1.016" layer="51"/>
</package>
<package name="ML10">
<description>&lt;b&gt;HARTING&lt;/b&gt;</description>
<wire x1="-8.89" y1="3.175" x2="8.89" y2="3.175" width="0.1524" layer="21"/>
<wire x1="8.89" y1="-3.175" x2="8.89" y2="3.175" width="0.1524" layer="21"/>
<wire x1="-8.89" y1="3.175" x2="-8.89" y2="-3.175" width="0.1524" layer="21"/>
<wire x1="-10.16" y1="4.445" x2="-8.89" y2="4.445" width="0.1524" layer="21"/>
<wire x1="10.16" y1="-4.445" x2="5.461" y2="-4.445" width="0.1524" layer="21"/>
<wire x1="10.16" y1="-4.445" x2="10.16" y2="4.445" width="0.1524" layer="21"/>
<wire x1="-10.16" y1="4.445" x2="-10.16" y2="-4.445" width="0.1524" layer="21"/>
<wire x1="8.89" y1="-3.175" x2="4.572" y2="-3.175" width="0.1524" layer="21"/>
<wire x1="2.032" y1="-2.413" x2="-2.032" y2="-2.413" width="0.1524" layer="21"/>
<wire x1="-2.032" y1="-3.175" x2="-2.032" y2="-2.413" width="0.1524" layer="21"/>
<wire x1="-2.032" y1="-3.175" x2="-8.89" y2="-3.175" width="0.1524" layer="21"/>
<wire x1="-2.032" y1="-3.175" x2="-2.032" y2="-3.429" width="0.1524" layer="21"/>
<wire x1="2.032" y1="-2.413" x2="2.032" y2="-3.175" width="0.1524" layer="21"/>
<wire x1="2.032" y1="-3.175" x2="2.032" y2="-3.429" width="0.1524" layer="21"/>
<wire x1="8.89" y1="4.445" x2="8.89" y2="4.699" width="0.1524" layer="21"/>
<wire x1="8.89" y1="4.699" x2="7.62" y2="4.699" width="0.1524" layer="21"/>
<wire x1="7.62" y1="4.445" x2="7.62" y2="4.699" width="0.1524" layer="21"/>
<wire x1="8.89" y1="4.445" x2="10.16" y2="4.445" width="0.1524" layer="21"/>
<wire x1="0.635" y1="4.699" x2="-0.635" y2="4.699" width="0.1524" layer="21"/>
<wire x1="0.635" y1="4.699" x2="0.635" y2="4.445" width="0.1524" layer="21"/>
<wire x1="0.635" y1="4.445" x2="7.62" y2="4.445" width="0.1524" layer="21"/>
<wire x1="-0.635" y1="4.699" x2="-0.635" y2="4.445" width="0.1524" layer="21"/>
<wire x1="-7.62" y1="4.699" x2="-8.89" y2="4.699" width="0.1524" layer="21"/>
<wire x1="-8.89" y1="4.699" x2="-8.89" y2="4.445" width="0.1524" layer="21"/>
<wire x1="-7.62" y1="4.699" x2="-7.62" y2="4.445" width="0.1524" layer="21"/>
<wire x1="-7.62" y1="4.445" x2="-0.635" y2="4.445" width="0.1524" layer="21"/>
<wire x1="2.159" y1="-4.445" x2="2.032" y2="-4.445" width="0.1524" layer="21"/>
<wire x1="2.032" y1="-4.445" x2="-2.032" y2="-4.445" width="0.1524" layer="21"/>
<wire x1="3.048" y1="-3.175" x2="3.048" y2="-3.429" width="0.1524" layer="21"/>
<wire x1="3.048" y1="-3.175" x2="2.032" y2="-3.175" width="0.1524" layer="21"/>
<wire x1="4.572" y1="-3.175" x2="4.572" y2="-3.429" width="0.1524" layer="21"/>
<wire x1="4.572" y1="-3.175" x2="3.048" y2="-3.175" width="0.1524" layer="21"/>
<wire x1="2.159" y1="-4.445" x2="2.54" y2="-3.937" width="0.1524" layer="21"/>
<wire x1="5.08" y1="-3.937" x2="5.461" y2="-4.445" width="0.1524" layer="21"/>
<wire x1="5.08" y1="-3.937" x2="4.572" y2="-3.937" width="0.1524" layer="21"/>
<wire x1="3.048" y1="-3.429" x2="2.032" y2="-3.429" width="0.0508" layer="21"/>
<wire x1="2.032" y1="-3.429" x2="2.032" y2="-4.445" width="0.1524" layer="21"/>
<wire x1="4.572" y1="-3.429" x2="9.144" y2="-3.429" width="0.0508" layer="21"/>
<wire x1="9.144" y1="-3.429" x2="9.144" y2="3.429" width="0.0508" layer="21"/>
<wire x1="9.144" y1="3.429" x2="-9.144" y2="3.429" width="0.0508" layer="21"/>
<wire x1="-9.144" y1="3.429" x2="-9.144" y2="-3.429" width="0.0508" layer="21"/>
<wire x1="-9.144" y1="-3.429" x2="-2.032" y2="-3.429" width="0.0508" layer="21"/>
<wire x1="-2.032" y1="-3.429" x2="-2.032" y2="-4.445" width="0.1524" layer="21"/>
<wire x1="3.048" y1="-3.429" x2="3.048" y2="-3.937" width="0.1524" layer="21"/>
<wire x1="3.048" y1="-3.937" x2="2.54" y2="-3.937" width="0.1524" layer="21"/>
<wire x1="4.572" y1="-3.429" x2="4.572" y2="-3.937" width="0.1524" layer="21"/>
<wire x1="4.572" y1="-3.937" x2="3.048" y2="-3.937" width="0.1524" layer="21"/>
<wire x1="-2.032" y1="-4.445" x2="-4.445" y2="-4.445" width="0.1524" layer="21"/>
<wire x1="-4.445" y1="-4.318" x2="-4.445" y2="-4.445" width="0.1524" layer="21"/>
<wire x1="-4.445" y1="-4.318" x2="-5.715" y2="-4.318" width="0.1524" layer="21"/>
<wire x1="-5.715" y1="-4.445" x2="-5.715" y2="-4.318" width="0.1524" layer="21"/>
<wire x1="-5.715" y1="-4.445" x2="-10.16" y2="-4.445" width="0.1524" layer="21"/>
<pad name="1" x="-5.08" y="-1.27" drill="0.9144" shape="octagon"/>
<pad name="2" x="-5.08" y="1.27" drill="0.9144" shape="octagon"/>
<pad name="3" x="-2.54" y="-1.27" drill="0.9144" shape="octagon"/>
<pad name="4" x="-2.54" y="1.27" drill="0.9144" shape="octagon"/>
<pad name="5" x="0" y="-1.27" drill="0.9144" shape="octagon"/>
<pad name="6" x="0" y="1.27" drill="0.9144" shape="octagon"/>
<pad name="7" x="2.54" y="-1.27" drill="0.9144" shape="octagon"/>
<pad name="8" x="2.54" y="1.27" drill="0.9144" shape="octagon"/>
<pad name="9" x="5.08" y="-1.27" drill="0.9144" shape="octagon"/>
<pad name="10" x="5.08" y="1.27" drill="0.9144" shape="octagon"/>
<text x="-1.016" y="-4.064" size="1.27" layer="21" ratio="10">10</text>
<text x="-10.16" y="5.08" size="1.778" layer="25" ratio="10">&gt;NAME</text>
<text x="0" y="5.08" size="1.778" layer="27" ratio="10">&gt;VALUE</text>
<text x="-7.62" y="-1.905" size="1.27" layer="21" ratio="10">1</text>
<text x="-7.62" y="0.635" size="1.27" layer="21" ratio="10">2</text>
<rectangle x1="-2.794" y1="1.016" x2="-2.286" y2="1.524" layer="51"/>
<rectangle x1="-5.334" y1="1.016" x2="-4.826" y2="1.524" layer="51"/>
<rectangle x1="-0.254" y1="1.016" x2="0.254" y2="1.524" layer="51"/>
<rectangle x1="4.826" y1="1.016" x2="5.334" y2="1.524" layer="51"/>
<rectangle x1="2.286" y1="1.016" x2="2.794" y2="1.524" layer="51"/>
<rectangle x1="-2.794" y1="-1.524" x2="-2.286" y2="-1.016" layer="51"/>
<rectangle x1="-5.334" y1="-1.524" x2="-4.826" y2="-1.016" layer="51"/>
<rectangle x1="-0.254" y1="-1.524" x2="0.254" y2="-1.016" layer="51"/>
<rectangle x1="4.826" y1="-1.524" x2="5.334" y2="-1.016" layer="51"/>
<rectangle x1="2.286" y1="-1.524" x2="2.794" y2="-1.016" layer="51"/>
</package>
</packages>
</library>
<library name="SUBD-A">
<packages>
<package name="F15HD">
<wire x1="-7.6835" y1="17.4308" x2="-7.4295" y2="17.4308" width="0.127" layer="21"/>
<wire x1="-8.1915" y1="16.9228" x2="-7.6835" y2="17.4308" width="0.127" layer="21" curve="-90"/>
<wire x1="7.5565" y1="17.4308" x2="8.0645" y2="16.9228" width="0.127" layer="21" curve="-90"/>
<wire x1="-7.8105" y1="11.2078" x2="-7.8105" y2="16.9228" width="0.127" layer="21"/>
<wire x1="-7.8105" y1="11.2078" x2="7.6835" y2="11.2078" width="0.127" layer="21"/>
<wire x1="7.6835" y1="11.2078" x2="7.6835" y2="16.9228" width="0.127" layer="21"/>
<wire x1="-15.5575" y1="7.62" x2="-10.4775" y2="7.62" width="0.127" layer="21"/>
<wire x1="-15.5575" y1="7.62" x2="-15.5575" y2="10.1918" width="0.127" layer="21"/>
<wire x1="-15.5575" y1="7.62" x2="-15.5575" y2="7.493" width="0.127" layer="21"/>
<wire x1="-15.5575" y1="10.1918" x2="-13.0175" y2="10.1918" width="0.127" layer="21"/>
<wire x1="-15.5575" y1="10.1918" x2="-15.5575" y2="10.6998" width="0.127" layer="21"/>
<wire x1="-15.5575" y1="10.6998" x2="-15.5575" y2="11.2078" width="0.127" layer="21"/>
<wire x1="15.4305" y1="11.2078" x2="15.4305" y2="10.6998" width="0.127" layer="21"/>
<wire x1="15.4305" y1="10.6998" x2="15.4305" y2="10.1918" width="0.127" layer="21"/>
<wire x1="15.4305" y1="10.1918" x2="15.4305" y2="7.62" width="0.127" layer="21"/>
<wire x1="15.4305" y1="7.62" x2="15.4305" y2="7.493" width="0.127" layer="21"/>
<wire x1="-13.0175" y1="9.9378" x2="-10.4775" y2="9.9378" width="0.127" layer="21"/>
<wire x1="-15.5575" y1="10.6998" x2="-13.0175" y2="10.6998" width="0.127" layer="21"/>
<wire x1="-13.0175" y1="10.6998" x2="-10.4775" y2="10.6998" width="0.127" layer="21"/>
<wire x1="-13.0175" y1="10.1918" x2="-13.0175" y2="10.6998" width="0.127" layer="21"/>
<wire x1="-13.0175" y1="10.1918" x2="-13.0175" y2="9.9378" width="0.127" layer="21"/>
<wire x1="-10.4775" y1="9.9378" x2="-10.4775" y2="10.1918" width="0.127" layer="21"/>
<wire x1="-10.4775" y1="10.1918" x2="-10.4775" y2="10.6998" width="0.127" layer="21"/>
<wire x1="-15.5575" y1="7.493" x2="-10.4775" y2="7.493" width="0.127" layer="21"/>
<wire x1="-10.4775" y1="7.493" x2="-10.4775" y2="7.62" width="0.127" layer="21"/>
<wire x1="-10.4775" y1="10.1918" x2="-10.3505" y2="10.1918" width="0.127" layer="21"/>
<wire x1="-10.3505" y1="10.1918" x2="10.2235" y2="10.1918" width="0.127" layer="21"/>
<wire x1="-10.3505" y1="8.255" x2="-9.7155" y2="7.62" width="0.127" layer="21" curve="90"/>
<wire x1="-10.4775" y1="7.62" x2="-9.5885" y2="7.62" width="0.127" layer="21"/>
<wire x1="-9.5885" y1="7.62" x2="-9.3345" y2="7.62" width="0.127" layer="21"/>
<wire x1="-10.3505" y1="8.255" x2="-10.3505" y2="10.1918" width="0.127" layer="21"/>
<wire x1="-9.3345" y1="7.62" x2="-9.3345" y2="6.858" width="0.127" layer="21"/>
<wire x1="-9.3345" y1="7.62" x2="9.2075" y2="7.62" width="0.127" layer="21"/>
<wire x1="-9.3345" y1="6.858" x2="9.2075" y2="6.858" width="0.127" layer="21"/>
<wire x1="9.2075" y1="7.62" x2="9.2075" y2="6.858" width="0.127" layer="21"/>
<wire x1="9.2075" y1="7.62" x2="9.4615" y2="7.62" width="0.127" layer="21"/>
<wire x1="9.4615" y1="7.62" x2="10.3505" y2="7.62" width="0.127" layer="21"/>
<wire x1="10.3505" y1="7.493" x2="15.4305" y2="7.493" width="0.127" layer="21"/>
<wire x1="12.8905" y1="10.1918" x2="12.8905" y2="10.6998" width="0.127" layer="21"/>
<wire x1="12.8905" y1="10.1918" x2="15.4305" y2="10.1918" width="0.127" layer="21"/>
<wire x1="12.8905" y1="10.6998" x2="15.4305" y2="10.6998" width="0.127" layer="21"/>
<wire x1="10.3505" y1="9.9378" x2="12.8905" y2="9.9378" width="0.127" layer="21"/>
<wire x1="12.8905" y1="10.1918" x2="12.8905" y2="9.9378" width="0.127" layer="21"/>
<wire x1="-10.4775" y1="10.6998" x2="10.3505" y2="10.6998" width="0.127" layer="21"/>
<wire x1="10.3505" y1="10.6998" x2="12.8905" y2="10.6998" width="0.127" layer="21"/>
<wire x1="10.3505" y1="9.9378" x2="10.3505" y2="10.1918" width="0.127" layer="21"/>
<wire x1="10.3505" y1="10.1918" x2="10.3505" y2="10.6998" width="0.127" layer="21"/>
<wire x1="10.2235" y1="8.255" x2="10.2235" y2="10.1918" width="0.127" layer="21"/>
<wire x1="10.2235" y1="10.1918" x2="10.3505" y2="10.1918" width="0.127" layer="21"/>
<wire x1="9.5885" y1="7.62" x2="10.2235" y2="8.255" width="0.127" layer="21" curve="90"/>
<wire x1="-14.9225" y1="-3.6513" x2="-15.5575" y2="-3.0163" width="0.127" layer="21"/>
<wire x1="-15.5575" y1="-3.0163" x2="-15.5575" y2="7.493" width="0.127" layer="21"/>
<wire x1="-10.0965" y1="-3.6513" x2="-14.9225" y2="-3.6513" width="0.127" layer="21"/>
<wire x1="-10.0965" y1="-3.6513" x2="-9.5885" y2="-3.1433" width="0.127" layer="21"/>
<wire x1="-9.5885" y1="-3.1433" x2="-9.5885" y2="7.62" width="0.127" layer="21"/>
<wire x1="9.4615" y1="-3.1432" x2="9.4615" y2="7.62" width="0.127" layer="21"/>
<wire x1="9.4615" y1="-3.1432" x2="9.9695" y2="-3.6512" width="0.127" layer="21"/>
<wire x1="9.9695" y1="-3.6512" x2="14.9225" y2="-3.6512" width="0.127" layer="21"/>
<wire x1="14.9225" y1="-3.6512" x2="15.4305" y2="-3.1432" width="0.127" layer="21"/>
<wire x1="15.4305" y1="-3.1432" x2="15.4305" y2="7.493" width="0.127" layer="21"/>
<wire x1="10.3505" y1="7.493" x2="10.3505" y2="7.62" width="0.127" layer="21"/>
<wire x1="10.3505" y1="7.62" x2="15.4305" y2="7.62" width="0.127" layer="21"/>
<wire x1="-15.5575" y1="11.2078" x2="-7.8105" y2="11.2078" width="0.127" layer="21"/>
<wire x1="-8.1915" y1="11.8428" x2="-8.1915" y2="16.9228" width="0.127" layer="21"/>
<wire x1="-8.8265" y1="11.2078" x2="-8.1915" y2="11.8428" width="0.127" layer="21" curve="90"/>
<wire x1="7.6835" y1="11.2078" x2="15.4305" y2="11.2078" width="0.127" layer="21"/>
<wire x1="8.0645" y1="11.8428" x2="8.0645" y2="16.9228" width="0.127" layer="21"/>
<wire x1="8.0645" y1="11.8428" x2="8.6995" y2="11.2078" width="0.127" layer="21" curve="90"/>
<wire x1="-7.4295" y1="11.7158" x2="-7.4295" y2="17.4308" width="0.127" layer="21"/>
<wire x1="-7.4295" y1="17.4308" x2="7.3025" y2="17.4308" width="0.127" layer="21"/>
<wire x1="7.3025" y1="11.7158" x2="7.3025" y2="17.4308" width="0.127" layer="21"/>
<wire x1="7.3025" y1="17.4308" x2="7.5565" y2="17.4308" width="0.127" layer="21"/>
<circle x="-12.5349" y="0" radius="1.651" width="0.127" layer="21"/>
<circle x="12.5349" y="0" radius="1.651" width="0.127" layer="21"/>
<circle x="-12.5349" y="0" radius="0.635" width="0.6096" layer="16"/>
<circle x="12.5349" y="0" radius="0.635" width="0.6096" layer="16"/>
<pad name="8" x="-1.151" y="0" drill="1.016" diameter="1.6002" shape="octagon"/>
<pad name="G2" x="12.5349" y="0" drill="3.302" diameter="5.08"/>
<pad name="G1" x="-12.5349" y="0" drill="3.302" diameter="5.08"/>
<pad name="7" x="-3.4529" y="0" drill="1.016" diameter="1.6002" shape="octagon"/>
<pad name="6" x="-5.7548" y="0" drill="1.016" diameter="1.6002" shape="octagon"/>
<pad name="9" x="1.1509" y="0" drill="1.016" diameter="1.6002" shape="octagon"/>
<pad name="10" x="3.4528" y="0" drill="1.016" diameter="1.6002" shape="octagon"/>
<pad name="13" x="-0.0001" y="2.54" drill="1.016" diameter="1.6002" shape="octagon"/>
<pad name="12" x="-2.302" y="2.54" drill="1.016" diameter="1.6002" shape="octagon"/>
<pad name="11" x="-4.6039" y="2.54" drill="1.016" diameter="1.6002" shape="octagon"/>
<pad name="14" x="2.3018" y="2.54" drill="1.016" diameter="1.6002" shape="octagon"/>
<pad name="15" x="4.6037" y="2.54" drill="1.016" diameter="1.6002" shape="octagon"/>
<pad name="3" x="0" y="-2.54" drill="1.016" diameter="1.6002" shape="octagon"/>
<pad name="2" x="-2.3019" y="-2.54" drill="1.016" diameter="1.6002" shape="octagon"/>
<pad name="1" x="-4.6038" y="-2.54" drill="1.016" diameter="1.6002"/>
<pad name="4" x="2.3019" y="-2.54" drill="1.016" diameter="1.6002" shape="octagon"/>
<pad name="5" x="4.6038" y="-2.54" drill="1.016" diameter="1.6002" shape="octagon"/>
<text x="-15.3035" y="-6.8263" size="1.778" layer="25" ratio="10">&gt;NAME</text>
<text x="-4.572" y="13.4938" size="1.778" layer="27" ratio="10">&gt;VALUE</text>
<text x="-6.731" y="-3.175" size="1.27" layer="21" ratio="10">1</text>
<text x="14.9225" y="2.54" size="1.27" layer="21" ratio="10" rot="R90">2,54</text>
<text x="-7.6835" y="8.509" size="1.27" layer="21" ratio="10">F15</text>
<text x="-8.001" y="-0.635" size="1.27" layer="21" ratio="10">6</text>
<text x="-8.001" y="1.905" size="1.27" layer="21" ratio="10">11</text>
<rectangle x1="-13.0937" y1="5.969" x2="-12.0777" y2="7.62" layer="21"/>
<rectangle x1="11.9507" y1="5.969" x2="12.9667" y2="7.62" layer="21"/>
<rectangle x1="-13.462" y1="6.858" x2="13.335" y2="7.62" layer="21"/>
</package>
</packages>
</library>
<library name="rcl">
<description>&lt;b&gt;Resistors, Capacitors, Inductors&lt;/b&gt;&lt;p&gt;
Based on the previous libraries:
&lt;ul&gt;
&lt;li&gt;r.lbr
&lt;li&gt;cap.lbr 
&lt;li&gt;cap-fe.lbr
&lt;li&gt;captant.lbr
&lt;li&gt;polcap.lbr
&lt;li&gt;ipc-smd.lbr
&lt;/ul&gt;
All SMD packages are defined according to the IPC specifications and  CECC&lt;p&gt;
&lt;author&gt;Created by librarian@cadsoft.de&lt;/author&gt;&lt;p&gt;
&lt;p&gt;
for Electrolyt Capacitors see also :&lt;p&gt;
www.bccomponents.com &lt;p&gt;
www.panasonic.com&lt;p&gt;
www.kemet.com&lt;p&gt;
http://www.secc.co.jp/pdf/os_e/2004/e_os_all.pdf &lt;b&gt;(SANYO)&lt;/b&gt;
&lt;p&gt;
for trimmer refence see : &lt;u&gt;www.electrospec-inc.com/cross_references/trimpotcrossref.asp&lt;/u&gt;&lt;p&gt;

&lt;table border=0 cellspacing=0 cellpadding=0 width="100%" cellpaddding=0&gt;
&lt;tr valign="top"&gt;

&lt;! &lt;td width="10"&gt;&amp;nbsp;&lt;/td&gt;
&lt;td width="90%"&gt;

&lt;b&gt;&lt;font color="#0000FF" size="4"&gt;TRIM-POT CROSS REFERENCE&lt;/font&gt;&lt;/b&gt;
&lt;P&gt;
&lt;TABLE BORDER=0 CELLSPACING=1 CELLPADDING=2&gt;
  &lt;TR&gt;
    &lt;TD COLSPAN=8&gt;
      &lt;FONT SIZE=3 FACE=ARIAL&gt;&lt;B&gt;RECTANGULAR MULTI-TURN&lt;/B&gt;&lt;/FONT&gt;
    &lt;/TD&gt;
  &lt;/TR&gt;
  &lt;TR&gt;
    &lt;TD ALIGN=CENTER&gt;
      &lt;B&gt;
      &lt;FONT SIZE=3 FACE=ARIAL color="#FF0000"&gt;BOURNS&lt;/FONT&gt;
      &lt;/B&gt;
    &lt;/TD&gt;
    &lt;TD ALIGN=CENTER&gt;
      &lt;B&gt;
      &lt;FONT SIZE=3 FACE=ARIAL color="#FF0000"&gt;BI&amp;nbsp;TECH&lt;/FONT&gt;
      &lt;/B&gt;
    &lt;/TD&gt;
    &lt;TD ALIGN=CENTER&gt;
      &lt;B&gt;
      &lt;FONT SIZE=3 FACE=ARIAL color="#FF0000"&gt;DALE-VISHAY&lt;/FONT&gt;
      &lt;/B&gt;
    &lt;/TD&gt;
    &lt;TD ALIGN=CENTER&gt;
      &lt;B&gt;
      &lt;FONT SIZE=3 FACE=ARIAL color="#FF0000"&gt;PHILIPS/MEPCO&lt;/FONT&gt;
      &lt;/B&gt;
    &lt;/TD&gt;
    &lt;TD ALIGN=CENTER&gt;
      &lt;B&gt;
      &lt;FONT SIZE=3 FACE=ARIAL color="#FF0000"&gt;MURATA&lt;/FONT&gt;
      &lt;/B&gt;
    &lt;/TD&gt;
    &lt;TD ALIGN=CENTER&gt;
      &lt;B&gt;
      &lt;FONT SIZE=3 FACE=ARIAL color="#FF0000"&gt;PANASONIC&lt;/FONT&gt;
      &lt;/B&gt;
    &lt;/TD&gt;
    &lt;TD ALIGN=CENTER&gt;
      &lt;B&gt;
      &lt;FONT SIZE=3 FACE=ARIAL color="#FF0000"&gt;SPECTROL&lt;/FONT&gt;
      &lt;/B&gt;
    &lt;/TD&gt;
    &lt;TD ALIGN=CENTER&gt;
      &lt;B&gt;
      &lt;FONT SIZE=3 FACE=ARIAL color="#FF0000"&gt;MILSPEC&lt;/FONT&gt;
      &lt;/B&gt;
    &lt;/TD&gt;&lt;TD&gt;&amp;nbsp;&lt;/TD&gt;
  &lt;/TR&gt;
  &lt;TR&gt;
    &lt;TD BGCOLOR="#cccccc" ALIGN=CENTER&gt;&lt;FONT FACE=ARIAL SIZE=3 &gt;
      3005P&lt;BR&gt;
      3006P&lt;BR&gt;
      3006W&lt;BR&gt;
      3006Y&lt;BR&gt;
      3009P&lt;BR&gt;
      3009W&lt;BR&gt;
      3009Y&lt;BR&gt;
      3057J&lt;BR&gt;
      3057L&lt;BR&gt;
      3057P&lt;BR&gt;
      3057Y&lt;BR&gt;
      3059J&lt;BR&gt;
      3059L&lt;BR&gt;
      3059P&lt;BR&gt;
      3059Y&lt;BR&gt;&lt;/FONT&gt;
    &lt;/TD&gt;
    &lt;TD BGCOLOR="#cccccc" ALIGN=CENTER&gt;&lt;FONT FACE=ARIAL SIZE=3&gt;
      -&lt;BR&gt;
      89P&lt;BR&gt;
      89W&lt;BR&gt;
      89X&lt;BR&gt;
      89PH&lt;BR&gt;
      76P&lt;BR&gt;
      89XH&lt;BR&gt;
      78SLT&lt;BR&gt;
      78L&amp;nbsp;ALT&lt;BR&gt;
      56P&amp;nbsp;ALT&lt;BR&gt;
      78P&amp;nbsp;ALT&lt;BR&gt;
      T8S&lt;BR&gt;
      78L&lt;BR&gt;
      56P&lt;BR&gt;
      78P&lt;BR&gt;&lt;/FONT&gt;
    &lt;/TD&gt;
    &lt;TD BGCOLOR="#cccccc" ALIGN=CENTER&gt;&lt;FONT FACE=ARIAL SIZE=3&gt;
      -&lt;BR&gt;
      T18/784&lt;BR&gt;
      783&lt;BR&gt;
      781&lt;BR&gt;
      -&lt;BR&gt;
      -&lt;BR&gt;
      -&lt;BR&gt;
      2199&lt;BR&gt;
      1697/1897&lt;BR&gt;
      1680/1880&lt;BR&gt;
      2187&lt;BR&gt;
      -&lt;BR&gt;
      -&lt;BR&gt;
      -&lt;BR&gt;
      -&lt;BR&gt;&lt;/FONT&gt;
    &lt;/TD&gt;
    &lt;TD BGCOLOR="#cccccc" ALIGN=CENTER&gt;&lt;FONT FACE=ARIAL SIZE=3&gt;
      -&lt;BR&gt;
      8035EKP/CT20/RJ-20P&lt;BR&gt;
      -&lt;BR&gt;
      RJ-20X&lt;BR&gt;
      -&lt;BR&gt;
      -&lt;BR&gt;
      -&lt;BR&gt;
      1211L&lt;BR&gt;
      8012EKQ&amp;nbsp;ALT&lt;BR&gt;
      8012EKR&amp;nbsp;ALT&lt;BR&gt;
      1211P&lt;BR&gt;
      8012EKJ&lt;BR&gt;
      8012EKL&lt;BR&gt;
      8012EKQ&lt;BR&gt;
      8012EKR&lt;BR&gt;&lt;/FONT&gt;
    &lt;/TD&gt;
    &lt;TD BGCOLOR="#cccccc" ALIGN=CENTER&gt;&lt;FONT FACE=ARIAL SIZE=3&gt;
      -&lt;BR&gt;
      2101P&lt;BR&gt;
      2101W&lt;BR&gt;
      2101Y&lt;BR&gt;
      -&lt;BR&gt;
      -&lt;BR&gt;
      -&lt;BR&gt;
      -&lt;BR&gt;
      -&lt;BR&gt;
      -&lt;BR&gt;
      -&lt;BR&gt;
      -&lt;BR&gt;
      2102L&lt;BR&gt;
      2102S&lt;BR&gt;
      2102Y&lt;BR&gt;&lt;/FONT&gt;
    &lt;/TD&gt;
    &lt;TD BGCOLOR="#cccccc" ALIGN=CENTER&gt;&lt;FONT FACE=ARIAL SIZE=3&gt;
      -&lt;BR&gt;
      EVMCOG&lt;BR&gt;
      -&lt;BR&gt;
      -&lt;BR&gt;
      -&lt;BR&gt;
      -&lt;BR&gt;
      -&lt;BR&gt;
      -&lt;BR&gt;
      -&lt;BR&gt;
      -&lt;BR&gt;
      -&lt;BR&gt;
      -&lt;BR&gt;
      -&lt;BR&gt;
      -&lt;BR&gt;
      -&lt;BR&gt;&lt;/FONT&gt;
    &lt;/TD&gt;
    &lt;TD BGCOLOR="#cccccc" ALIGN=CENTER&gt;&lt;FONT FACE=ARIAL SIZE=3&gt;
      -&lt;BR&gt;
      43P&lt;BR&gt;
      43W&lt;BR&gt;
      43Y&lt;BR&gt;
      -&lt;BR&gt;
      -&lt;BR&gt;
      -&lt;BR&gt;
      -&lt;BR&gt;
      40L&lt;BR&gt;
      40P&lt;BR&gt;
      40Y&lt;BR&gt;
      70Y-T602&lt;BR&gt;
      70L&lt;BR&gt;
      70P&lt;BR&gt;
      70Y&lt;BR&gt;&lt;/FONT&gt;
    &lt;/TD&gt;
    &lt;TD BGCOLOR="#cccccc" ALIGN=CENTER&gt;&lt;FONT FACE=ARIAL SIZE=3&gt;
      -&lt;BR&gt;
      -&lt;BR&gt;
      -&lt;BR&gt;
      -&lt;BR&gt;
      -&lt;BR&gt;
      -&lt;BR&gt;
      -&lt;BR&gt;
      -&lt;BR&gt;
      RT/RTR12&lt;BR&gt;
      RT/RTR12&lt;BR&gt;
      RT/RTR12&lt;BR&gt;
      -&lt;BR&gt;
      RJ/RJR12&lt;BR&gt;
      RJ/RJR12&lt;BR&gt;
      RJ/RJR12&lt;BR&gt;&lt;/FONT&gt;
    &lt;/TD&gt;
  &lt;/TR&gt;
  &lt;TR&gt;
    &lt;TD COLSPAN=8&gt;&amp;nbsp;
    &lt;/TD&gt;
  &lt;/TR&gt;
  &lt;TR&gt;
    &lt;TD COLSPAN=8&gt;
      &lt;FONT SIZE=4 FACE=ARIAL&gt;&lt;B&gt;SQUARE MULTI-TURN&lt;/B&gt;&lt;/FONT&gt;
    &lt;/TD&gt;
  &lt;/TR&gt;
  &lt;TR&gt;
   &lt;TD ALIGN=CENTER&gt;
      &lt;FONT SIZE=3 FACE=ARIAL&gt;&lt;B&gt;BOURN&lt;/B&gt;&lt;/FONT&gt;
    &lt;/TD&gt;
    &lt;TD ALIGN=CENTER&gt;
      &lt;FONT SIZE=3 FACE=ARIAL&gt;&lt;B&gt;BI&amp;nbsp;TECH&lt;/B&gt;&lt;/FONT&gt;
    &lt;/TD&gt;
    &lt;TD ALIGN=CENTER&gt;
      &lt;FONT SIZE=3 FACE=ARIAL&gt;&lt;B&gt;DALE-VISHAY&lt;/B&gt;&lt;/FONT&gt;
    &lt;/TD&gt;
    &lt;TD ALIGN=CENTER&gt;
      &lt;FONT SIZE=3 FACE=ARIAL&gt;&lt;B&gt;PHILIPS/MEPCO&lt;/B&gt;&lt;/FONT&gt;
    &lt;/TD&gt;
    &lt;TD ALIGN=CENTER&gt;
      &lt;FONT SIZE=3 FACE=ARIAL&gt;&lt;B&gt;MURATA&lt;/B&gt;&lt;/FONT&gt;
    &lt;/TD&gt;
    &lt;TD ALIGN=CENTER&gt;
      &lt;FONT SIZE=3 FACE=ARIAL&gt;&lt;B&gt;PANASONIC&lt;/B&gt;&lt;/FONT&gt;
    &lt;/TD&gt;
    &lt;TD ALIGN=CENTER&gt;
      &lt;FONT SIZE=3 FACE=ARIAL&gt;&lt;B&gt;SPECTROL&lt;/B&gt;&lt;/FONT&gt;
    &lt;/TD&gt;
    &lt;TD ALIGN=CENTER&gt;
      &lt;FONT SIZE=3 FACE=ARIAL&gt;&lt;B&gt;MILSPEC&lt;/B&gt;&lt;/FONT&gt;
    &lt;/TD&gt;
  &lt;/TR&gt;
  &lt;TR&gt;
    &lt;TD BGCOLOR="#cccccc" ALIGN=CENTER&gt;&lt;FONT FACE=ARIAL SIZE=3&gt;
      3250L&lt;BR&gt;
      3250P&lt;BR&gt;
      3250W&lt;BR&gt;
      3250X&lt;BR&gt;
      3252P&lt;BR&gt;
      3252W&lt;BR&gt;
      3252X&lt;BR&gt;
      3260P&lt;BR&gt;
      3260W&lt;BR&gt;
      3260X&lt;BR&gt;
      3262P&lt;BR&gt;
      3262W&lt;BR&gt;
      3262X&lt;BR&gt;
      3266P&lt;BR&gt;
      3266W&lt;BR&gt;
      3266X&lt;BR&gt;
      3290H&lt;BR&gt;
      3290P&lt;BR&gt;
      3290W&lt;BR&gt;
      3292P&lt;BR&gt;
      3292W&lt;BR&gt;
      3292X&lt;BR&gt;
      3296P&lt;BR&gt;
      3296W&lt;BR&gt;
      3296X&lt;BR&gt;
      3296Y&lt;BR&gt;
      3296Z&lt;BR&gt;
      3299P&lt;BR&gt;
      3299W&lt;BR&gt;
      3299X&lt;BR&gt;
      3299Y&lt;BR&gt;
      3299Z&lt;BR&gt;&lt;/FONT&gt;
    &lt;/TD&gt;
    &lt;TD BGCOLOR="#cccccc" ALIGN=CENTER&gt;&lt;FONT FACE=ARIAL SIZE=3&gt;
      -&lt;BR&gt;
      66P&amp;nbsp;ALT&lt;BR&gt;
      66W&amp;nbsp;ALT&lt;BR&gt;
      66X&amp;nbsp;ALT&lt;BR&gt;
      66P&amp;nbsp;ALT&lt;BR&gt;
      66W&amp;nbsp;ALT&lt;BR&gt;
      66X&amp;nbsp;ALT&lt;BR&gt;
      -&lt;BR&gt;
      64W&amp;nbsp;ALT&lt;BR&gt;
      -&lt;BR&gt;
      64P&amp;nbsp;ALT&lt;BR&gt;
      64W&amp;nbsp;ALT&lt;BR&gt;
      64X&amp;nbsp;ALT&lt;BR&gt;
      64P&lt;BR&gt;
      64W&lt;BR&gt;
      64X&lt;BR&gt;
      66X&amp;nbsp;ALT&lt;BR&gt;
      66P&amp;nbsp;ALT&lt;BR&gt;
      66W&amp;nbsp;ALT&lt;BR&gt;
      66P&lt;BR&gt;
      66W&lt;BR&gt;
      66X&lt;BR&gt;
      67P&lt;BR&gt;
      67W&lt;BR&gt;
      67X&lt;BR&gt;
      67Y&lt;BR&gt;
      67Z&lt;BR&gt;
      68P&lt;BR&gt;
      68W&lt;BR&gt;
      68X&lt;BR&gt;
      67Y&amp;nbsp;ALT&lt;BR&gt;
      67Z&amp;nbsp;ALT&lt;BR&gt;&lt;/FONT&gt;
    &lt;/TD&gt;
    &lt;TD BGCOLOR="#cccccc" ALIGN=CENTER&gt;&lt;FONT FACE=ARIAL SIZE=3&gt;
      5050&lt;BR&gt;
      5091&lt;BR&gt;
      5080&lt;BR&gt;
      5087&lt;BR&gt;
      -&lt;BR&gt;
      -&lt;BR&gt;
      -&lt;BR&gt;
      -&lt;BR&gt;
      -&lt;BR&gt;
      -&lt;BR&gt;
      -&lt;BR&gt;
      T63YB&lt;BR&gt;
      T63XB&lt;BR&gt;
      -&lt;BR&gt;
      -&lt;BR&gt;
      -&lt;BR&gt;
      5887&lt;BR&gt;
      5891&lt;BR&gt;
      5880&lt;BR&gt;
      -&lt;BR&gt;
      -&lt;BR&gt;
      -&lt;BR&gt;
      T93Z&lt;BR&gt;
      T93YA&lt;BR&gt;
      T93XA&lt;BR&gt;
      T93YB&lt;BR&gt;
      T93XB&lt;BR&gt;
      -&lt;BR&gt;
      -&lt;BR&gt;
      -&lt;BR&gt;
      -&lt;BR&gt;
      -&lt;BR&gt;&lt;/FONT&gt;
    &lt;/TD&gt;
    &lt;TD BGCOLOR="#cccccc" ALIGN=CENTER&gt;&lt;FONT FACE=ARIAL SIZE=3&gt;
      -&lt;BR&gt;
      -&lt;BR&gt;
      -&lt;BR&gt;
      -&lt;BR&gt;
      -&lt;BR&gt;
      -&lt;BR&gt;
      -&lt;BR&gt;
      -&lt;BR&gt;
      -&lt;BR&gt;
      -&lt;BR&gt;
      8026EKP&lt;BR&gt;
      8026EKW&lt;BR&gt;
      8026EKM&lt;BR&gt;
      8026EKP&lt;BR&gt;
      8026EKB&lt;BR&gt;
      8026EKM&lt;BR&gt;
      1309X&lt;BR&gt;
      1309P&lt;BR&gt;
      1309W&lt;BR&gt;
      8024EKP&lt;BR&gt;
      8024EKW&lt;BR&gt;
      8024EKN&lt;BR&gt;
      RJ-9P/CT9P&lt;BR&gt;
      RJ-9W&lt;BR&gt;
      RJ-9X&lt;BR&gt;
      -&lt;BR&gt;
      -&lt;BR&gt;
      -&lt;BR&gt;
      -&lt;BR&gt;
      -&lt;BR&gt;
      -&lt;BR&gt;
      -&lt;BR&gt;&lt;/FONT&gt;
    &lt;/TD&gt;
    &lt;TD BGCOLOR="#cccccc" ALIGN=CENTER&gt;&lt;FONT FACE=ARIAL SIZE=3&gt;
      -&lt;BR&gt;
      -&lt;BR&gt;
      -&lt;BR&gt;
      -&lt;BR&gt;
      -&lt;BR&gt;
      -&lt;BR&gt;
      -&lt;BR&gt;
      -&lt;BR&gt;
      -&lt;BR&gt;
      -&lt;BR&gt;
      3103P&lt;BR&gt;
      3103Y&lt;BR&gt;
      3103Z&lt;BR&gt;
      3103P&lt;BR&gt;
      3103Y&lt;BR&gt;
      3103Z&lt;BR&gt;
      -&lt;BR&gt;
      -&lt;BR&gt;
      -&lt;BR&gt;
      -&lt;BR&gt;
      -&lt;BR&gt;
      -&lt;BR&gt;
      3105P/3106P&lt;BR&gt;
      3105W/3106W&lt;BR&gt;
      3105X/3106X&lt;BR&gt;
      3105Y/3106Y&lt;BR&gt;
      3105Z/3105Z&lt;BR&gt;
      3102P&lt;BR&gt;
      3102W&lt;BR&gt;
      3102X&lt;BR&gt;
      3102Y&lt;BR&gt;
      3102Z&lt;BR&gt;&lt;/FONT&gt;
    &lt;/TD&gt;
    &lt;TD BGCOLOR="#cccccc" ALIGN=CENTER&gt;&lt;FONT FACE=ARIAL SIZE=3&gt;
      -&lt;BR&gt;
      -&lt;BR&gt;
      -&lt;BR&gt;
      -&lt;BR&gt;
      -&lt;BR&gt;
      -&lt;BR&gt;
      -&lt;BR&gt;
      -&lt;BR&gt;
      -&lt;BR&gt;
      -&lt;BR&gt;
      -&lt;BR&gt;
      -&lt;BR&gt;
      -&lt;BR&gt;
      -&lt;BR&gt;
      -&lt;BR&gt;
      -&lt;BR&gt;
      -&lt;BR&gt;
      -&lt;BR&gt;
      -&lt;BR&gt;
      -&lt;BR&gt;
      -&lt;BR&gt;
      -&lt;BR&gt;
      EVMCBG&lt;BR&gt;
      EVMCCG&lt;BR&gt;
      -&lt;BR&gt;
      -&lt;BR&gt;
      -&lt;BR&gt;
      -&lt;BR&gt;
      -&lt;BR&gt;
      -&lt;BR&gt;
      -&lt;BR&gt;
      -&lt;BR&gt;&lt;/FONT&gt;
    &lt;/TD&gt;
    &lt;TD BGCOLOR="#cccccc" ALIGN=CENTER&gt;&lt;FONT FACE=ARIAL SIZE=3&gt;
      55-1-X&lt;BR&gt;
      55-4-X&lt;BR&gt;
      55-3-X&lt;BR&gt;
      55-2-X&lt;BR&gt;
      -&lt;BR&gt;
      -&lt;BR&gt;
      -&lt;BR&gt;
      -&lt;BR&gt;
      -&lt;BR&gt;
      -&lt;BR&gt;
      -&lt;BR&gt;
      -&lt;BR&gt;
      -&lt;BR&gt;
      -&lt;BR&gt;
      -&lt;BR&gt;
      -&lt;BR&gt;
      50-2-X&lt;BR&gt;
      50-4-X&lt;BR&gt;
      50-3-X&lt;BR&gt;
      -&lt;BR&gt;
      -&lt;BR&gt;
      -&lt;BR&gt;
      64P&lt;BR&gt;
      64W&lt;BR&gt;
      64X&lt;BR&gt;
      64Y&lt;BR&gt;
      64Z&lt;BR&gt;
      -&lt;BR&gt;
      -&lt;BR&gt;
      -&lt;BR&gt;
      -&lt;BR&gt;
      -&lt;BR&gt;&lt;/FONT&gt;
    &lt;/TD&gt;
    &lt;TD BGCOLOR="#cccccc" ALIGN=CENTER&gt;&lt;FONT FACE=ARIAL SIZE=3&gt;
      RT/RTR22&lt;BR&gt;
      RT/RTR22&lt;BR&gt;
      RT/RTR22&lt;BR&gt;
      RT/RTR22&lt;BR&gt;
      RJ/RJR22&lt;BR&gt;
      RJ/RJR22&lt;BR&gt;
      RJ/RJR22&lt;BR&gt;
      RT/RTR26&lt;BR&gt;
      RT/RTR26&lt;BR&gt;
      RT/RTR26&lt;BR&gt;
      RJ/RJR26&lt;BR&gt;
      RJ/RJR26&lt;BR&gt;
      RJ/RJR26&lt;BR&gt;
      RJ/RJR26&lt;BR&gt;
      RJ/RJR26&lt;BR&gt;
      RJ/RJR26&lt;BR&gt;
      RT/RTR24&lt;BR&gt;
      RT/RTR24&lt;BR&gt;
      RT/RTR24&lt;BR&gt;
      RJ/RJR24&lt;BR&gt;
      RJ/RJR24&lt;BR&gt;
      RJ/RJR24&lt;BR&gt;
      RJ/RJR24&lt;BR&gt;
      RJ/RJR24&lt;BR&gt;
      RJ/RJR24&lt;BR&gt;
      -&lt;BR&gt;
      -&lt;BR&gt;
      -&lt;BR&gt;
      -&lt;BR&gt;
      -&lt;BR&gt;
      -&lt;BR&gt;
      -&lt;BR&gt;&lt;/FONT&gt;
    &lt;/TD&gt;
  &lt;/TR&gt;
  &lt;TR&gt;
    &lt;TD COLSPAN=8&gt;&amp;nbsp;
    &lt;/TD&gt;
  &lt;/TR&gt;
  &lt;TR&gt;
    &lt;TD COLSPAN=8&gt;
      &lt;FONT SIZE=4 FACE=ARIAL&gt;&lt;B&gt;SINGLE TURN&lt;/B&gt;&lt;/FONT&gt;
    &lt;/TD&gt;
  &lt;/TR&gt;
  &lt;TR&gt;
    &lt;TD ALIGN=CENTER&gt;
      &lt;FONT SIZE=3 FACE=ARIAL&gt;&lt;B&gt;BOURN&lt;/B&gt;&lt;/FONT&gt;
    &lt;/TD&gt;
    &lt;TD ALIGN=CENTER&gt;
      &lt;FONT SIZE=3 FACE=ARIAL&gt;&lt;B&gt;BI&amp;nbsp;TECH&lt;/B&gt;&lt;/FONT&gt;
    &lt;/TD&gt;
    &lt;TD ALIGN=CENTER&gt;
      &lt;FONT SIZE=3 FACE=ARIAL&gt;&lt;B&gt;DALE-VISHAY&lt;/B&gt;&lt;/FONT&gt;
    &lt;/TD&gt;
    &lt;TD ALIGN=CENTER&gt;
      &lt;FONT SIZE=3 FACE=ARIAL&gt;&lt;B&gt;PHILIPS/MEPCO&lt;/B&gt;&lt;/FONT&gt;
    &lt;/TD&gt;
    &lt;TD ALIGN=CENTER&gt;
      &lt;FONT SIZE=3 FACE=ARIAL&gt;&lt;B&gt;MURATA&lt;/B&gt;&lt;/FONT&gt;
    &lt;/TD&gt;
    &lt;TD ALIGN=CENTER&gt;
      &lt;FONT SIZE=3 FACE=ARIAL&gt;&lt;B&gt;PANASONIC&lt;/B&gt;&lt;/FONT&gt;
    &lt;/TD&gt;
    &lt;TD ALIGN=CENTER&gt;
      &lt;FONT SIZE=3 FACE=ARIAL&gt;&lt;B&gt;SPECTROL&lt;/B&gt;&lt;/FONT&gt;
    &lt;/TD&gt;
    &lt;TD ALIGN=CENTER&gt;
      &lt;FONT SIZE=3 FACE=ARIAL&gt;&lt;B&gt;MILSPEC&lt;/B&gt;&lt;/FONT&gt;
    &lt;/TD&gt;
  &lt;/TR&gt;
  &lt;TR&gt;
    &lt;TD BGCOLOR="#cccccc" ALIGN=CENTER&gt;&lt;FONT FACE=ARIAL SIZE=3&gt;
      3323P&lt;BR&gt;
      3323S&lt;BR&gt;
      3323W&lt;BR&gt;
      3329H&lt;BR&gt;
      3329P&lt;BR&gt;
      3329W&lt;BR&gt;
      3339H&lt;BR&gt;
      3339P&lt;BR&gt;
      3339W&lt;BR&gt;
      3352E&lt;BR&gt;
      3352H&lt;BR&gt;
      3352K&lt;BR&gt;
      3352P&lt;BR&gt;
      3352T&lt;BR&gt;
      3352V&lt;BR&gt;
      3352W&lt;BR&gt;
      3362H&lt;BR&gt;
      3362M&lt;BR&gt;
      3362P&lt;BR&gt;
      3362R&lt;BR&gt;
      3362S&lt;BR&gt;
      3362U&lt;BR&gt;
      3362W&lt;BR&gt;
      3362X&lt;BR&gt;
      3386B&lt;BR&gt;
      3386C&lt;BR&gt;
      3386F&lt;BR&gt;
      3386H&lt;BR&gt;
      3386K&lt;BR&gt;
      3386M&lt;BR&gt;
      3386P&lt;BR&gt;
      3386S&lt;BR&gt;
      3386W&lt;BR&gt;
      3386X&lt;BR&gt;&lt;/FONT&gt;
    &lt;/TD&gt;
    &lt;TD BGCOLOR="#cccccc" ALIGN=CENTER&gt;&lt;FONT FACE=ARIAL SIZE=3&gt;
      25P&lt;BR&gt;
      25S&lt;BR&gt;
      25RX&lt;BR&gt;
      82P&lt;BR&gt;
      82M&lt;BR&gt;
      82PA&lt;BR&gt;
      -&lt;BR&gt;
      -&lt;BR&gt;
      -&lt;BR&gt;
      91E&lt;BR&gt;
      91X&lt;BR&gt;
      91T&lt;BR&gt;
      91B&lt;BR&gt;
      91A&lt;BR&gt;
      91V&lt;BR&gt;
      91W&lt;BR&gt;
      25W&lt;BR&gt;
      25V&lt;BR&gt;
      25P&lt;BR&gt;
      -&lt;BR&gt;
      25S&lt;BR&gt;
      25U&lt;BR&gt;
      25RX&lt;BR&gt;
      25X&lt;BR&gt;
      72XW&lt;BR&gt;
      72XL&lt;BR&gt;
      72PM&lt;BR&gt;
      72RX&lt;BR&gt;
      -&lt;BR&gt;
      72PX&lt;BR&gt;
      72P&lt;BR&gt;
      72RXW&lt;BR&gt;
      72RXL&lt;BR&gt;
      72X&lt;BR&gt;&lt;/FONT&gt;
    &lt;/TD&gt;
    &lt;TD BGCOLOR="#cccccc" ALIGN=CENTER&gt;&lt;FONT FACE=ARIAL SIZE=3&gt;
      -&lt;BR&gt;
      -&lt;BR&gt;
      -&lt;BR&gt;
      T7YB&lt;BR&gt;
      T7YA&lt;BR&gt;
      -&lt;BR&gt;
      -&lt;BR&gt;
      -&lt;BR&gt;
      -&lt;BR&gt;
      -&lt;BR&gt;
      -&lt;BR&gt;
      -&lt;BR&gt;
      -&lt;BR&gt;
      -&lt;BR&gt;
      -&lt;BR&gt;
      -&lt;BR&gt;
      -&lt;BR&gt;
      TXD&lt;BR&gt;
      TYA&lt;BR&gt;
      TYP&lt;BR&gt;
      -&lt;BR&gt;
      TYD&lt;BR&gt;
      TX&lt;BR&gt;
      -&lt;BR&gt;
      150SX&lt;BR&gt;
      100SX&lt;BR&gt;
      102T&lt;BR&gt;
      101S&lt;BR&gt;
      190T&lt;BR&gt;
      150TX&lt;BR&gt;
      101&lt;BR&gt;
      -&lt;BR&gt;
      -&lt;BR&gt;
      101SX&lt;BR&gt;&lt;/FONT&gt;
    &lt;/TD&gt;
    &lt;TD BGCOLOR="#cccccc" ALIGN=CENTER&gt;&lt;FONT FACE=ARIAL SIZE=3&gt;
      ET6P&lt;BR&gt;
      ET6S&lt;BR&gt;
      ET6X&lt;BR&gt;
      RJ-6W/8014EMW&lt;BR&gt;
      RJ-6P/8014EMP&lt;BR&gt;
      RJ-6X/8014EMX&lt;BR&gt;
      TM7W&lt;BR&gt;
      TM7P&lt;BR&gt;
      TM7X&lt;BR&gt;
      -&lt;BR&gt;
      8017SMS&lt;BR&gt;
      -&lt;BR&gt;
      8017SMB&lt;BR&gt;
      8017SMA&lt;BR&gt;
      -&lt;BR&gt;
      -&lt;BR&gt;
      CT-6W&lt;BR&gt;
      CT-6H&lt;BR&gt;
      CT-6P&lt;BR&gt;
      CT-6R&lt;BR&gt;
      -&lt;BR&gt;
      CT-6V&lt;BR&gt;
      CT-6X&lt;BR&gt;
      -&lt;BR&gt;
      -&lt;BR&gt;
      8038EKV&lt;BR&gt;
      -&lt;BR&gt;
      8038EKX&lt;BR&gt;
      -&lt;BR&gt;
      -&lt;BR&gt;
      8038EKP&lt;BR&gt;
      8038EKZ&lt;BR&gt;
      8038EKW&lt;BR&gt;
      -&lt;BR&gt;&lt;/FONT&gt;
    &lt;/TD&gt;
    &lt;TD BGCOLOR="#cccccc" ALIGN=CENTER&gt;&lt;FONT FACE=ARIAL SIZE=3&gt;
      -&lt;BR&gt;
      -&lt;BR&gt;
      -&lt;BR&gt;
      3321H&lt;BR&gt;
      3321P&lt;BR&gt;
      3321N&lt;BR&gt;
      1102H&lt;BR&gt;
      1102P&lt;BR&gt;
      1102T&lt;BR&gt;
      RVA0911V304A&lt;BR&gt;
      -&lt;BR&gt;
      RVA0911H413A&lt;BR&gt;
      RVG0707V100A&lt;BR&gt;
      RVA0607V(H)306A&lt;BR&gt;
      RVA1214H213A&lt;BR&gt;
      -&lt;BR&gt;
      -&lt;BR&gt;
      -&lt;BR&gt;
      -&lt;BR&gt;
      -&lt;BR&gt;
      -&lt;BR&gt;
      -&lt;BR&gt;
      -&lt;BR&gt;
      -&lt;BR&gt;
      3104B&lt;BR&gt;
      3104C&lt;BR&gt;
      3104F&lt;BR&gt;
      3104H&lt;BR&gt;
      -&lt;BR&gt;
      3104M&lt;BR&gt;
      3104P&lt;BR&gt;
      3104S&lt;BR&gt;
      3104W&lt;BR&gt;
      3104X&lt;BR&gt;&lt;/FONT&gt;
    &lt;/TD&gt;
    &lt;TD BGCOLOR="#cccccc" ALIGN=CENTER&gt;&lt;FONT FACE=ARIAL SIZE=3&gt;
      EVMQ0G&lt;BR&gt;
      EVMQIG&lt;BR&gt;
      EVMQ3G&lt;BR&gt;
      EVMS0G&lt;BR&gt;
      EVMQ0G&lt;BR&gt;
      EVMG0G&lt;BR&gt;
      -&lt;BR&gt;
      -&lt;BR&gt;
      -&lt;BR&gt;
      EVMK4GA00B&lt;BR&gt;
      EVM30GA00B&lt;BR&gt;
      EVMK0GA00B&lt;BR&gt;
      EVM38GA00B&lt;BR&gt;
      EVMB6&lt;BR&gt;
      EVLQ0&lt;BR&gt;
      -&lt;BR&gt;
      EVMMSG&lt;BR&gt;
      EVMMBG&lt;BR&gt;
      EVMMAG&lt;BR&gt;
      -&lt;BR&gt;
      -&lt;BR&gt;
      EVMMCS&lt;BR&gt;
      -&lt;BR&gt;
      -&lt;BR&gt;
      -&lt;BR&gt;
      -&lt;BR&gt;
      -&lt;BR&gt;
      EVMM1&lt;BR&gt;
      -&lt;BR&gt;
      -&lt;BR&gt;
      EVMM0&lt;BR&gt;
      -&lt;BR&gt;
      -&lt;BR&gt;
      EVMM3&lt;BR&gt;&lt;/FONT&gt;
    &lt;/TD&gt;
    &lt;TD BGCOLOR="#cccccc" ALIGN=CENTER&gt;&lt;FONT FACE=ARIAL SIZE=3&gt;
      -&lt;BR&gt;
      -&lt;BR&gt;
      -&lt;BR&gt;
      62-3-1&lt;BR&gt;
      62-1-2&lt;BR&gt;
      -&lt;BR&gt;
      -&lt;BR&gt;
      -&lt;BR&gt;
      -&lt;BR&gt;
      -&lt;BR&gt;
      -&lt;BR&gt;
      -&lt;BR&gt;
      -&lt;BR&gt;
      -&lt;BR&gt;
      -&lt;BR&gt;
      -&lt;BR&gt;
      67R&lt;BR&gt;
      -&lt;BR&gt;
      67P&lt;BR&gt;
      -&lt;BR&gt;
      -&lt;BR&gt;
      -&lt;BR&gt;
      -&lt;BR&gt;
      67X&lt;BR&gt;
      63V&lt;BR&gt;
      63S&lt;BR&gt;
      63M&lt;BR&gt;
      -&lt;BR&gt;
      -&lt;BR&gt;
      63H&lt;BR&gt;
      63P&lt;BR&gt;
      -&lt;BR&gt;
      -&lt;BR&gt;
      63X&lt;BR&gt;&lt;/FONT&gt;
    &lt;/TD&gt;
    &lt;TD BGCOLOR="#cccccc" ALIGN=CENTER&gt;&lt;FONT FACE=ARIAL SIZE=3&gt;
      -&lt;BR&gt;
      -&lt;BR&gt;
      -&lt;BR&gt;
      RJ/RJR50&lt;BR&gt;
      RJ/RJR50&lt;BR&gt;
      RJ/RJR50&lt;BR&gt;
      -&lt;BR&gt;
      -&lt;BR&gt;
      -&lt;BR&gt;
      -&lt;BR&gt;
      -&lt;BR&gt;
      -&lt;BR&gt;
      -&lt;BR&gt;
      -&lt;BR&gt;
      -&lt;BR&gt;
      -&lt;BR&gt;
      -&lt;BR&gt;
      -&lt;BR&gt;
      -&lt;BR&gt;
      -&lt;BR&gt;
      -&lt;BR&gt;
      -&lt;BR&gt;
      -&lt;BR&gt;
      -&lt;BR&gt;
      -&lt;BR&gt;
      -&lt;BR&gt;
      -&lt;BR&gt;
      -&lt;BR&gt;
      -&lt;BR&gt;
      -&lt;BR&gt;
      -&lt;BR&gt;
      -&lt;BR&gt;
      -&lt;BR&gt;
      -&lt;BR&gt;&lt;/FONT&gt;
    &lt;/TD&gt;
  &lt;/TR&gt;
&lt;/TABLE&gt;
&lt;P&gt;&amp;nbsp;&lt;P&gt;
&lt;TABLE BORDER=0 CELLSPACING=1 CELLPADDING=3&gt;
  &lt;TR&gt;
    &lt;TD COLSPAN=7&gt;
      &lt;FONT color="#0000FF" SIZE=4 FACE=ARIAL&gt;&lt;B&gt;SMD TRIM-POT CROSS REFERENCE&lt;/B&gt;&lt;/FONT&gt;
      &lt;P&gt;
      &lt;FONT SIZE=4 FACE=ARIAL&gt;&lt;B&gt;MULTI-TURN&lt;/B&gt;&lt;/FONT&gt;
    &lt;/TD&gt;
  &lt;/TR&gt;
  &lt;TR&gt;
    &lt;TD&gt;
      &lt;FONT SIZE=3 FACE=ARIAL&gt;&lt;B&gt;BOURNS&lt;/B&gt;&lt;/FONT&gt;
    &lt;/TD&gt;
    &lt;TD&gt;
      &lt;FONT SIZE=3 FACE=ARIAL&gt;&lt;B&gt;BI&amp;nbsp;TECH&lt;/B&gt;&lt;/FONT&gt;
    &lt;/TD&gt;
    &lt;TD&gt;
      &lt;FONT SIZE=3 FACE=ARIAL&gt;&lt;B&gt;DALE-VISHAY&lt;/B&gt;&lt;/FONT&gt;
    &lt;/TD&gt;
    &lt;TD&gt;
      &lt;FONT SIZE=3 FACE=ARIAL&gt;&lt;B&gt;PHILIPS/MEPCO&lt;/B&gt;&lt;/FONT&gt;
    &lt;/TD&gt;
    &lt;TD&gt;
      &lt;FONT SIZE=3 FACE=ARIAL&gt;&lt;B&gt;PANASONIC&lt;/B&gt;&lt;/FONT&gt;
    &lt;/TD&gt;
    &lt;TD&gt;
      &lt;FONT SIZE=3 FACE=ARIAL&gt;&lt;B&gt;TOCOS&lt;/B&gt;&lt;/FONT&gt;
    &lt;/TD&gt;
    &lt;TD&gt;
      &lt;FONT SIZE=3 FACE=ARIAL&gt;&lt;B&gt;AUX/KYOCERA&lt;/B&gt;&lt;/FONT&gt;
    &lt;/TD&gt;
  &lt;/TR&gt;
  &lt;TR&gt;
    &lt;TD BGCOLOR="#cccccc" ALIGN=CENTER&gt;&lt;FONT FACE=ARIAL SIZE=3&gt;
      3224G&lt;BR&gt;
      3224J&lt;BR&gt;
      3224W&lt;BR&gt;
      3269P&lt;BR&gt;
      3269W&lt;BR&gt;
      3269X&lt;BR&gt;&lt;/FONT&gt;
    &lt;/TD&gt;
    &lt;TD BGCOLOR="#cccccc" ALIGN=CENTER&gt;&lt;FONT FACE=ARIAL SIZE=3&gt;
      44G&lt;BR&gt;
      44J&lt;BR&gt;
      44W&lt;BR&gt;
      84P&lt;BR&gt;
      84W&lt;BR&gt;
      84X&lt;BR&gt;&lt;/FONT&gt;
    &lt;/TD&gt;
    &lt;TD BGCOLOR="#cccccc" ALIGN=CENTER&gt;&lt;FONT FACE=ARIAL SIZE=3&gt;
      -&lt;BR&gt;
      -&lt;BR&gt;
      -&lt;BR&gt;
      ST63Z&lt;BR&gt;
      ST63Y&lt;BR&gt;
      -&lt;BR&gt;&lt;/FONT&gt;
    &lt;/TD&gt;
    &lt;TD BGCOLOR="#cccccc" ALIGN=CENTER&gt;&lt;FONT FACE=ARIAL SIZE=3&gt;
      -&lt;BR&gt;
      -&lt;BR&gt;
      -&lt;BR&gt;
      ST5P&lt;BR&gt;
      ST5W&lt;BR&gt;
      ST5X&lt;BR&gt;&lt;/FONT&gt;
    &lt;/TD&gt;
    &lt;TD BGCOLOR="#cccccc" ALIGN=CENTER&gt;&lt;FONT FACE=ARIAL SIZE=3&gt;
      -&lt;BR&gt;
      -&lt;BR&gt;
      -&lt;BR&gt;
      -&lt;BR&gt;
      -&lt;BR&gt;
      -&lt;BR&gt;&lt;/FONT&gt;
    &lt;/TD&gt;
    &lt;TD BGCOLOR="#cccccc" ALIGN=CENTER&gt;&lt;FONT FACE=ARIAL SIZE=3&gt;
      -&lt;BR&gt;
      -&lt;BR&gt;
      -&lt;BR&gt;
      -&lt;BR&gt;
      -&lt;BR&gt;
      -&lt;BR&gt;&lt;/FONT&gt;
    &lt;/TD&gt;
    &lt;TD BGCOLOR="#cccccc" ALIGN=CENTER&gt;&lt;FONT FACE=ARIAL SIZE=3&gt;
      -&lt;BR&gt;
      -&lt;BR&gt;
      -&lt;BR&gt;
      -&lt;BR&gt;
      -&lt;BR&gt;
      -&lt;BR&gt;&lt;/FONT&gt;
    &lt;/TD&gt;
  &lt;/TR&gt;
  &lt;TR&gt;
    &lt;TD COLSPAN=7&gt;&amp;nbsp;
    &lt;/TD&gt;
  &lt;/TR&gt;
  &lt;TR&gt;
    &lt;TD COLSPAN=7&gt;
      &lt;FONT SIZE=4 FACE=ARIAL&gt;&lt;B&gt;SINGLE TURN&lt;/B&gt;&lt;/FONT&gt;
    &lt;/TD&gt;
  &lt;/TR&gt;
  &lt;TR&gt;
    &lt;TD&gt;
      &lt;FONT SIZE=3 FACE=ARIAL&gt;&lt;B&gt;BOURNS&lt;/B&gt;&lt;/FONT&gt;
    &lt;/TD&gt;
    &lt;TD&gt;
      &lt;FONT SIZE=3 FACE=ARIAL&gt;&lt;B&gt;BI&amp;nbsp;TECH&lt;/B&gt;&lt;/FONT&gt;
    &lt;/TD&gt;
    &lt;TD&gt;
      &lt;FONT SIZE=3 FACE=ARIAL&gt;&lt;B&gt;DALE-VISHAY&lt;/B&gt;&lt;/FONT&gt;
    &lt;/TD&gt;
    &lt;TD&gt;
      &lt;FONT SIZE=3 FACE=ARIAL&gt;&lt;B&gt;PHILIPS/MEPCO&lt;/B&gt;&lt;/FONT&gt;
    &lt;/TD&gt;
    &lt;TD&gt;
      &lt;FONT SIZE=3 FACE=ARIAL&gt;&lt;B&gt;PANASONIC&lt;/B&gt;&lt;/FONT&gt;
    &lt;/TD&gt;
    &lt;TD&gt;
      &lt;FONT SIZE=3 FACE=ARIAL&gt;&lt;B&gt;TOCOS&lt;/B&gt;&lt;/FONT&gt;
    &lt;/TD&gt;
    &lt;TD&gt;
      &lt;FONT SIZE=3 FACE=ARIAL&gt;&lt;B&gt;AUX/KYOCERA&lt;/B&gt;&lt;/FONT&gt;
    &lt;/TD&gt;
  &lt;/TR&gt;
  &lt;TR&gt;
    &lt;TD BGCOLOR="#cccccc" ALIGN=CENTER&gt;&lt;FONT FACE=ARIAL SIZE=3&gt;
      3314G&lt;BR&gt;
      3314J&lt;BR&gt;
      3364A/B&lt;BR&gt;
      3364C/D&lt;BR&gt;
      3364W/X&lt;BR&gt;
      3313G&lt;BR&gt;
      3313J&lt;BR&gt;&lt;/FONT&gt;
    &lt;/TD&gt;
    &lt;TD BGCOLOR="#cccccc" ALIGN=CENTER&gt;&lt;FONT FACE=ARIAL SIZE=3&gt;
      23B&lt;BR&gt;
      23A&lt;BR&gt;
      21X&lt;BR&gt;
      21W&lt;BR&gt;
      -&lt;BR&gt;
      22B&lt;BR&gt;
      22A&lt;BR&gt;&lt;/FONT&gt;
    &lt;/TD&gt;
    &lt;TD BGCOLOR="#cccccc" ALIGN=CENTER&gt;&lt;FONT FACE=ARIAL SIZE=3&gt;
      ST5YL/ST53YL&lt;BR&gt;
      ST5YJ/5T53YJ&lt;BR&gt;
      ST-23A&lt;BR&gt;
      ST-22B&lt;BR&gt;
      ST-22&lt;BR&gt;
      -&lt;BR&gt;
      -&lt;BR&gt;&lt;/FONT&gt;
    &lt;/TD&gt;
    &lt;TD BGCOLOR="#cccccc" ALIGN=CENTER&gt;&lt;FONT FACE=ARIAL SIZE=3&gt;
      ST-4B&lt;BR&gt;
      ST-4A&lt;BR&gt;
      -&lt;BR&gt;
      -&lt;BR&gt;
      -&lt;BR&gt;
      ST-3B&lt;BR&gt;
      ST-3A&lt;BR&gt;&lt;/FONT&gt;
    &lt;/TD&gt;
    &lt;TD BGCOLOR="#cccccc" ALIGN=CENTER&gt;&lt;FONT FACE=ARIAL SIZE=3&gt;
      -&lt;BR&gt;
      EVM-6YS&lt;BR&gt;
      EVM-1E&lt;BR&gt;
      EVM-1G&lt;BR&gt;
      EVM-1D&lt;BR&gt;
      -&lt;BR&gt;
      -&lt;BR&gt;&lt;/FONT&gt;
    &lt;/TD&gt;
    &lt;TD BGCOLOR="#cccccc" ALIGN=CENTER&gt;&lt;FONT FACE=ARIAL SIZE=3&gt;
      G4B&lt;BR&gt;
      G4A&lt;BR&gt;
      TR04-3S1&lt;BR&gt;
      TRG04-2S1&lt;BR&gt;
      -&lt;BR&gt;
      -&lt;BR&gt;
      -&lt;BR&gt;&lt;/FONT&gt;
    &lt;/TD&gt;
    &lt;TD BGCOLOR="#cccccc" ALIGN=CENTER&gt;&lt;FONT FACE=ARIAL SIZE=3&gt;
      -&lt;BR&gt;
      -&lt;BR&gt;
      DVR-43A&lt;BR&gt;
      CVR-42C&lt;BR&gt;
      CVR-42A/C&lt;BR&gt;
      -&lt;BR&gt;
      -&lt;BR&gt;&lt;/FONT&gt;
    &lt;/TD&gt;
  &lt;/TR&gt;
&lt;/TABLE&gt;
&lt;P&gt;
&lt;FONT SIZE=4 FACE=ARIAL&gt;&lt;B&gt;ALT =&amp;nbsp;ALTERNATE&lt;/B&gt;&lt;/FONT&gt;
&lt;P&gt;

&amp;nbsp;
&lt;P&gt;
&lt;/td&gt;
&lt;/tr&gt;
&lt;/table&gt;</description>
<packages>
<package name="R0805">
<description>&lt;b&gt;RESISTOR&lt;/b&gt;&lt;p&gt;</description>
<wire x1="-0.41" y1="0.635" x2="0.41" y2="0.635" width="0.1524" layer="51"/>
<wire x1="-0.41" y1="-0.635" x2="0.41" y2="-0.635" width="0.1524" layer="51"/>
<wire x1="-1.973" y1="0.983" x2="1.973" y2="0.983" width="0.0508" layer="39"/>
<wire x1="1.973" y1="0.983" x2="1.973" y2="-0.983" width="0.0508" layer="39"/>
<wire x1="1.973" y1="-0.983" x2="-1.973" y2="-0.983" width="0.0508" layer="39"/>
<wire x1="-1.973" y1="-0.983" x2="-1.973" y2="0.983" width="0.0508" layer="39"/>
<smd name="1" x="-0.95" y="0" dx="1.3" dy="1.5" layer="1"/>
<smd name="2" x="0.95" y="0" dx="1.3" dy="1.5" layer="1"/>
<text x="-0.635" y="1.27" size="1.27" layer="25">&gt;NAME</text>
<text x="-0.635" y="-2.54" size="1.27" layer="27">&gt;VALUE</text>
<rectangle x1="0.4064" y1="-0.6985" x2="1.0564" y2="0.7015" layer="51"/>
<rectangle x1="-1.0668" y1="-0.6985" x2="-0.4168" y2="0.7015" layer="51"/>
<rectangle x1="-0.1999" y1="-0.5001" x2="0.1999" y2="0.5001" layer="35"/>
</package>
</packages>
</library>
</libraries>
<attributes>
</attributes>
<variantdefs>
</variantdefs>
<classes>
<class number="0" name="default" width="0" drill="0">
</class>
</classes>
<designrules name="leiton">
<description language="de">&lt;b&gt;LeitOn Design-Regeln&lt;/b&gt;
&lt;p&gt;
Diese DRU-Datei enthält alle erforderlichen Design Einstellungen, damit Ihre Leiterplatte bei uns fehlerfrei  produziert werden kann. Die Optionen Shapes und Misc sind nicht relevant und der minimale und maximale Wert für Roundness Shapes kann frei gewählt werden.
&lt;br&gt;&lt;br&gt;
&lt;b&gt;Übersicht der LeitOn Regeln:&lt;/b&lt;&lt;br&gt;&lt;br&gt;
&lt;u&gt;allgemein:&lt;/u&gt;&lt;br&gt;
minimale Leiterbahnbreite/-abstand: &lt;b&gt;0.15 mm&lt;/b&gt;&lt;br&gt;
(Strichstärke für Kupferschrift sollte mind. 0.2 mm sein um gut lesbar zu bleiben)&lt;br&gt;
kleinster Bohrdurchmesser: &lt;b&gt;0.3 mm&lt;/b&gt;&lt;br&gt;&lt;br&gt;
&lt;u&gt;Kupferrestringe um DK-Bohrungen:&lt;/u&gt;&lt;br&gt;
Aussenlagen: &lt;b&gt;0.15 mm&lt;/b&gt;&lt;br&gt;
Innenlagen:  &lt;b&gt;0.2 mm&lt;/b&gt;&lt;br&gt;
&lt;br&gt;
&lt;u&gt;Masselagen-Freimachungen:&lt;/u&gt;&lt;br&gt;
Innenlagen: &lt;b&gt;0.35 mm&lt;/b&gt;&lt;br&gt;
&lt;br&gt;
&lt;u&gt;Bestückungsdruck&lt;/u&gt;&lt;br&gt;
minimale Strichstärke: &lt;b&gt;0.2 mm&lt;/b&gt;&lt;br&gt;&lt;br&gt;
&lt;b&gt;&lt;u&gt;&lt;font color= &quot;blue&quot;&gt;Wichtig:&lt;/font&gt;&lt;/b&gt;&lt;/u&gt; Verwenden Sie als Strichstärke für Masseflächen keine Strichstärken kleiner 0.1mm. Es entstehen sonst extrem große Datenmengen, weil Eagle die Massefläche stets mit Polygonen der gleichen Strichstärke füllt.

&lt;/p&gt;</description>
<param name="layerSetup" value="(1*16)"/>
<param name="mtCopper" value="0.035mm 0.035mm 0.035mm 0.035mm 0.035mm 0.035mm 0.035mm 0.035mm 0.035mm 0.035mm 0.035mm 0.035mm 0.035mm 0.035mm 0.035mm 0.035mm"/>
<param name="mtIsolate" value="1.5mm 0.15mm 0.2mm 0.15mm 0.2mm 0.15mm 0.2mm 0.15mm 0.2mm 0.15mm 0.2mm 0.15mm 0.2mm 0.15mm 0.2mm"/>
<param name="mdWireWire" value="6mil"/>
<param name="mdWirePad" value="6mil"/>
<param name="mdWireVia" value="6mil"/>
<param name="mdPadPad" value="6mil"/>
<param name="mdPadVia" value="6mil"/>
<param name="mdViaVia" value="6mil"/>
<param name="mdSmdPad" value="6mil"/>
<param name="mdSmdVia" value="6mil"/>
<param name="mdSmdSmd" value="6mil"/>
<param name="mdViaViaSameLayer" value="8mil"/>
<param name="mnLayersViaInSmd" value="2"/>
<param name="mdCopperDimension" value="20mil"/>
<param name="mdDrill" value="8mil"/>
<param name="mdSmdStop" value="0mil"/>
<param name="msWidth" value="6mil"/>
<param name="msDrill" value="0.3mm"/>
<param name="msMicroVia" value="999mil"/>
<param name="msBlindViaRatio" value="0.5"/>
<param name="rvPadTop" value="0"/>
<param name="rvPadInner" value="0"/>
<param name="rvPadBottom" value="0"/>
<param name="rvViaOuter" value="0"/>
<param name="rvViaInner" value="0"/>
<param name="rvMicroViaOuter" value="0"/>
<param name="rvMicroViaInner" value="0"/>
<param name="rlMinPadTop" value="8mil"/>
<param name="rlMaxPadTop" value="100mil"/>
<param name="rlMinPadInner" value="8mil"/>
<param name="rlMaxPadInner" value="100mil"/>
<param name="rlMinPadBottom" value="8mil"/>
<param name="rlMaxPadBottom" value="100mil"/>
<param name="rlMinViaOuter" value="6mil"/>
<param name="rlMaxViaOuter" value="100mil"/>
<param name="rlMinViaInner" value="8mil"/>
<param name="rlMaxViaInner" value="100mil"/>
<param name="rlMinMicroViaOuter" value="99mil"/>
<param name="rlMaxMicroViaOuter" value="999mil"/>
<param name="rlMinMicroViaInner" value="99mil"/>
<param name="rlMaxMicroViaInner" value="999mil"/>
<param name="psTop" value="-1"/>
<param name="psBottom" value="-1"/>
<param name="psFirst" value="0"/>
<param name="psElongationLong" value="100"/>
<param name="psElongationOffset" value="100"/>
<param name="mvStopFrame" value="0"/>
<param name="mvCreamFrame" value="0"/>
<param name="mlMinStopFrame" value="3mil"/>
<param name="mlMaxStopFrame" value="8mil"/>
<param name="mlMinCreamFrame" value="0mil"/>
<param name="mlMaxCreamFrame" value="8mil"/>
<param name="mlViaStopLimit" value="0mil"/>
<param name="srRoundness" value="0"/>
<param name="srMinRoundness" value="0mil"/>
<param name="srMaxRoundness" value="0mil"/>
<param name="slThermalIsolate" value="8mil"/>
<param name="slThermalsForVias" value="0"/>
<param name="dpMaxLengthDifference" value="10mm"/>
<param name="dpGapFactor" value="2.5"/>
<param name="checkAngle" value="0"/>
<param name="checkFont" value="1"/>
<param name="checkRestrict" value="1"/>
<param name="checkStop" value="0"/>
<param name="checkValues" value="0"/>
<param name="checkNames" value="1"/>
<param name="checkWireStubs" value="1"/>
<param name="checkPolygonWidth" value="0"/>
<param name="useDiameter" value="13"/>
<param name="maxErrors" value="50"/>
</designrules>
<autorouter>
<pass name="Default">
<param name="RoutingGrid" value="50mil"/>
<param name="AutoGrid" value="1"/>
<param name="Efforts" value="0"/>
<param name="TopRouterVariant" value="1"/>
<param name="tpViaShape" value="round"/>
<param name="PrefDir.1" value="|"/>
<param name="PrefDir.2" value="0"/>
<param name="PrefDir.3" value="0"/>
<param name="PrefDir.4" value="0"/>
<param name="PrefDir.5" value="0"/>
<param name="PrefDir.6" value="0"/>
<param name="PrefDir.7" value="0"/>
<param name="PrefDir.8" value="0"/>
<param name="PrefDir.9" value="0"/>
<param name="PrefDir.10" value="0"/>
<param name="PrefDir.11" value="0"/>
<param name="PrefDir.12" value="0"/>
<param name="PrefDir.13" value="0"/>
<param name="PrefDir.14" value="0"/>
<param name="PrefDir.15" value="0"/>
<param name="PrefDir.16" value="-"/>
<param name="cfVia" value="8"/>
<param name="cfNonPref" value="5"/>
<param name="cfChangeDir" value="2"/>
<param name="cfOrthStep" value="2"/>
<param name="cfDiagStep" value="3"/>
<param name="cfExtdStep" value="0"/>
<param name="cfBonusStep" value="1"/>
<param name="cfMalusStep" value="1"/>
<param name="cfPadImpact" value="4"/>
<param name="cfSmdImpact" value="4"/>
<param name="cfBusImpact" value="0"/>
<param name="cfHugging" value="3"/>
<param name="cfAvoid" value="4"/>
<param name="cfPolygon" value="10"/>
<param name="cfBase.1" value="0"/>
<param name="cfBase.2" value="1"/>
<param name="cfBase.3" value="1"/>
<param name="cfBase.4" value="1"/>
<param name="cfBase.5" value="1"/>
<param name="cfBase.6" value="1"/>
<param name="cfBase.7" value="1"/>
<param name="cfBase.8" value="1"/>
<param name="cfBase.9" value="1"/>
<param name="cfBase.10" value="1"/>
<param name="cfBase.11" value="1"/>
<param name="cfBase.12" value="1"/>
<param name="cfBase.13" value="1"/>
<param name="cfBase.14" value="1"/>
<param name="cfBase.15" value="1"/>
<param name="cfBase.16" value="0"/>
<param name="mnVias" value="20"/>
<param name="mnSegments" value="9999"/>
<param name="mnExtdSteps" value="9999"/>
<param name="mnRipupLevel" value="10"/>
<param name="mnRipupSteps" value="100"/>
<param name="mnRipupTotal" value="100"/>
</pass>
<pass name="Follow-me" refer="Default" active="yes">
</pass>
<pass name="Busses" refer="Default" active="yes">
<param name="cfNonPref" value="4"/>
<param name="cfBusImpact" value="4"/>
<param name="cfHugging" value="0"/>
<param name="mnVias" value="0"/>
</pass>
<pass name="Route" refer="Default" active="yes">
</pass>
<pass name="Optimize1" refer="Default" active="yes">
<param name="cfVia" value="99"/>
<param name="cfExtdStep" value="10"/>
<param name="cfHugging" value="1"/>
<param name="mnExtdSteps" value="1"/>
<param name="mnRipupLevel" value="0"/>
</pass>
<pass name="Optimize2" refer="Optimize1" active="yes">
<param name="cfNonPref" value="0"/>
<param name="cfChangeDir" value="6"/>
<param name="cfExtdStep" value="0"/>
<param name="cfBonusStep" value="2"/>
<param name="cfMalusStep" value="2"/>
<param name="cfPadImpact" value="2"/>
<param name="cfSmdImpact" value="2"/>
<param name="cfHugging" value="0"/>
</pass>
<pass name="Optimize3" refer="Optimize2" active="yes">
<param name="cfChangeDir" value="8"/>
<param name="cfPadImpact" value="0"/>
<param name="cfSmdImpact" value="0"/>
</pass>
<pass name="Optimize4" refer="Optimize3" active="yes">
<param name="cfChangeDir" value="25"/>
</pass>
</autorouter>
<elements>
<element name="SV2" library="con-harting-ml" package="ML14" value="" x="16.51" y="5.08" smashed="yes">
<attribute name="MF" value="" x="43.18" y="-50.8" size="1.778" layer="27" display="off"/>
<attribute name="MPN" value="" x="43.18" y="-50.8" size="1.778" layer="27" display="off"/>
<attribute name="NAME" x="2.54" y="5.08" size="1.778" layer="25" ratio="10" rot="R90"/>
<attribute name="OC_FARNELL" value="unknown" x="43.18" y="-50.8" size="1.778" layer="27" display="off"/>
<attribute name="OC_NEWARK" value="unknown" x="43.18" y="-50.8" size="1.778" layer="27" display="off"/>
<attribute name="VALUE" x="16.51" y="10.16" size="1.778" layer="27" ratio="10"/>
</element>
<element name="X1" library="SUBD-A" package="F15HD" value="F15HD" x="16.51" y="15.24" smashed="yes">
<attribute name="NAME" x="32.9565" y="12.2237" size="1.778" layer="25" ratio="10"/>
<attribute name="VALUE" x="11.938" y="28.7338" size="1.778" layer="27" ratio="10"/>
</element>
<element name="SV1" library="con-harting-ml" package="ML10" value="" x="72.39" y="5.08" smashed="yes">
<attribute name="MF" value="" x="72.39" y="5.08" size="1.778" layer="27" display="off"/>
<attribute name="MPN" value="" x="72.39" y="5.08" size="1.778" layer="27" display="off"/>
<attribute name="NAME" x="57.15" y="5.08" size="1.778" layer="25" ratio="10"/>
<attribute name="OC_FARNELL" value="unknown" x="72.39" y="5.08" size="1.778" layer="27" display="off"/>
<attribute name="OC_NEWARK" value="unknown" x="72.39" y="5.08" size="1.778" layer="27" display="off"/>
<attribute name="VALUE" x="72.39" y="10.16" size="1.778" layer="27" ratio="10"/>
</element>
<element name="X2" library="SUBD-A" package="F15HD" value="F15HD" x="66.167" y="15.24" smashed="yes">
<attribute name="NAME" x="47.0535" y="12.2237" size="1.778" layer="25" ratio="10"/>
<attribute name="VALUE" x="61.595" y="28.7338" size="1.778" layer="27" ratio="10"/>
</element>
<element name="R1" library="rcl" package="R0805" value="1R" x="39.37" y="10.16" smashed="yes" rot="R180">
<attribute name="NAME" x="37.465" y="10.16" size="1.27" layer="25" rot="R180"/>
</element>
<element name="R2" library="rcl" package="R0805" value="1R" x="44.45" y="8.89" smashed="yes" rot="R180">
<attribute name="NAME" x="48.895" y="8.89" size="1.27" layer="25" rot="R180"/>
</element>
<element name="R3" library="rcl" package="R0805" value="1R" x="39.37" y="7.62" smashed="yes" rot="R180">
<attribute name="NAME" x="37.465" y="7.62" size="1.27" layer="25" rot="R180"/>
</element>
<element name="R5" library="rcl" package="R0805" value="75R" x="39.37" y="5.08" smashed="yes" rot="R180">
<attribute name="NAME" x="37.465" y="5.08" size="1.27" layer="25" rot="R180"/>
</element>
<element name="R4" library="rcl" package="R0805" value="75R" x="44.45" y="6.35" smashed="yes" rot="R180">
<attribute name="NAME" x="48.895" y="6.35" size="1.27" layer="25" rot="R180"/>
</element>
</elements>
<signals>
<signal name="RA">
<contactref element="SV1" pad="1"/>
<wire x1="67.31" y1="3.81" x2="66.04" y2="3.81" width="0.6096" layer="16"/>
<contactref element="X2" pad="1"/>
<wire x1="59.0232" y1="10.16" x2="61.5632" y2="12.7" width="0.6096" layer="1"/>
<wire x1="66.04" y1="3.81" x2="61.5632" y2="8.2868" width="0.6096" layer="16"/>
<wire x1="61.5632" y1="8.2868" x2="61.5632" y2="12.7" width="0.6096" layer="16"/>
<contactref element="R1" pad="1"/>
<wire x1="59.0232" y1="10.16" x2="40.32" y2="10.16" width="0.6096" layer="1"/>
</signal>
<signal name="GA">
<contactref element="SV1" pad="3"/>
<wire x1="69.85" y1="3.81" x2="68.58" y2="5.08" width="0.6096" layer="16"/>
<wire x1="68.58" y1="5.08" x2="66.548" y2="5.08" width="0.6096" layer="16"/>
<contactref element="X2" pad="2"/>
<wire x1="63.8651" y1="12.7" x2="60.0551" y2="8.89" width="0.6096" layer="1"/>
<wire x1="66.548" y1="5.08" x2="63.8651" y2="7.7629" width="0.6096" layer="16"/>
<wire x1="63.8651" y1="7.7629" x2="63.8651" y2="12.7" width="0.6096" layer="16"/>
<contactref element="R2" pad="1"/>
<wire x1="45.4" y1="8.89" x2="60.0551" y2="8.89" width="0.6096" layer="1"/>
</signal>
<signal name="BA">
<contactref element="SV1" pad="5"/>
<wire x1="72.39" y1="3.81" x2="71.12" y2="5.08" width="0.6096" layer="16"/>
<wire x1="71.12" y1="5.08" x2="71.12" y2="7.62" width="0.6096" layer="16"/>
<wire x1="71.12" y1="7.62" x2="69.85" y2="8.89" width="0.6096" layer="16"/>
<contactref element="X2" pad="3"/>
<wire x1="66.167" y1="12.7" x2="61.087" y2="7.62" width="0.6096" layer="1"/>
<wire x1="66.167" y1="12.7" x2="69.977" y2="8.89" width="0.6096" layer="16"/>
<wire x1="69.977" y1="8.89" x2="69.85" y2="8.89" width="0.6096" layer="16"/>
<contactref element="R3" pad="1"/>
<wire x1="61.087" y1="7.62" x2="40.32" y2="7.62" width="0.6096" layer="1"/>
</signal>
<signal name="VA">
<contactref element="SV1" pad="9"/>
<contactref element="X2" pad="14"/>
<wire x1="76.2" y1="2.54" x2="77.47" y2="3.81" width="0.6096" layer="1"/>
<wire x1="68.4688" y1="17.78" x2="69.8658" y2="19.177" width="0.6096" layer="1"/>
<wire x1="69.8658" y1="19.177" x2="71.247" y2="19.177" width="0.6096" layer="1"/>
<wire x1="71.247" y1="19.177" x2="72.39" y2="18.034" width="0.6096" layer="1"/>
<wire x1="72.39" y1="18.034" x2="72.39" y2="16.51" width="0.6096" layer="1"/>
<wire x1="72.39" y1="16.51" x2="76.2" y2="12.7" width="0.6096" layer="1"/>
<wire x1="76.2" y1="12.7" x2="76.2" y2="5.08" width="0.6096" layer="1"/>
<wire x1="76.2" y1="5.08" x2="77.47" y2="3.81" width="0.6096" layer="1"/>
<contactref element="R5" pad="1"/>
<wire x1="63.5" y1="5.08" x2="66.04" y2="2.54" width="0.6096" layer="1"/>
<wire x1="66.04" y1="2.54" x2="76.2" y2="2.54" width="0.6096" layer="1"/>
<wire x1="40.32" y1="5.08" x2="63.5" y2="5.08" width="0.6096" layer="1"/>
</signal>
<signal name="HA">
<contactref element="SV1" pad="8"/>
<contactref element="X2" pad="13"/>
<wire x1="74.93" y1="6.35" x2="74.93" y2="7.62" width="0.6096" layer="1"/>
<wire x1="74.93" y1="7.62" x2="73.66" y2="8.89" width="0.6096" layer="1"/>
<wire x1="73.66" y1="8.89" x2="67.31" y2="8.89" width="0.6096" layer="1"/>
<wire x1="64.77" y1="6.35" x2="67.31" y2="8.89" width="0.6096" layer="1"/>
<wire x1="66.1669" y1="17.78" x2="66.1669" y2="17.6531" width="0.6096" layer="1"/>
<wire x1="66.1669" y1="17.6531" x2="67.31" y2="16.51" width="0.6096" layer="1"/>
<wire x1="67.31" y1="16.51" x2="70.485" y2="16.51" width="0.6096" layer="1"/>
<wire x1="70.485" y1="16.51" x2="73.66" y2="13.335" width="0.6096" layer="1"/>
<wire x1="73.66" y1="13.335" x2="73.66" y2="8.89" width="0.6096" layer="1"/>
<contactref element="R4" pad="1"/>
<wire x1="64.77" y1="6.35" x2="45.4" y2="6.35" width="0.6096" layer="1"/>
</signal>
<signal name="RO">
<contactref element="SV2" pad="4"/>
<contactref element="X1" pad="1"/>
<wire x1="11.43" y1="6.35" x2="11.43" y2="12.2238" width="0.6096" layer="16"/>
<wire x1="11.43" y1="12.2238" x2="11.9062" y2="12.7" width="0.6096" layer="16"/>
</signal>
<signal name="GO">
<contactref element="SV2" pad="6"/>
<contactref element="X1" pad="2"/>
<wire x1="13.97" y1="6.35" x2="13.97" y2="12.4619" width="0.6096" layer="16"/>
<wire x1="13.97" y1="12.4619" x2="14.2081" y2="12.7" width="0.6096" layer="16"/>
</signal>
<signal name="BO">
<contactref element="SV2" pad="8"/>
<contactref element="X1" pad="3"/>
<wire x1="16.51" y1="12.7" x2="16.51" y2="6.35" width="0.6096" layer="16"/>
</signal>
<signal name="VO">
<contactref element="SV2" pad="12"/>
<contactref element="X1" pad="14"/>
<wire x1="18.8118" y1="17.78" x2="19.05" y2="17.78" width="0.6096" layer="16"/>
<wire x1="19.05" y1="17.78" x2="20.32" y2="16.51" width="0.6096" layer="16"/>
<wire x1="20.32" y1="16.51" x2="21.59" y2="16.51" width="0.6096" layer="16"/>
<wire x1="21.59" y1="16.51" x2="22.86" y2="15.24" width="0.6096" layer="16"/>
<wire x1="22.86" y1="15.24" x2="22.86" y2="7.62" width="0.6096" layer="16"/>
<wire x1="22.86" y1="7.62" x2="21.59" y2="6.35" width="0.6096" layer="16"/>
</signal>
<signal name="HO">
<contactref element="SV2" pad="14"/>
<contactref element="X1" pad="13"/>
<wire x1="16.5099" y1="17.78" x2="16.51" y2="17.78" width="0.6096" layer="16"/>
<wire x1="16.51" y1="17.78" x2="17.78" y2="19.05" width="0.6096" layer="16"/>
<wire x1="17.78" y1="19.05" x2="22.86" y2="19.05" width="0.6096" layer="16"/>
<wire x1="22.86" y1="19.05" x2="24.13" y2="17.78" width="0.6096" layer="16"/>
<wire x1="24.13" y1="17.78" x2="24.13" y2="6.35" width="0.6096" layer="16"/>
</signal>
<signal name="GNDA">
<contactref element="SV2" pad="1"/>
<contactref element="SV2" pad="9"/>
<contactref element="SV2" pad="2"/>
<contactref element="SV2" pad="10"/>
<contactref element="X1" pad="4"/>
<contactref element="X1" pad="5"/>
<contactref element="X1" pad="6"/>
<contactref element="X1" pad="7"/>
<contactref element="X1" pad="8"/>
<contactref element="X1" pad="10"/>
<contactref element="X1" pad="11"/>
<wire x1="10.7552" y1="15.24" x2="13.0571" y2="15.24" width="0.6096" layer="1"/>
<wire x1="13.0571" y1="15.24" x2="15.359" y2="15.24" width="0.6096" layer="1"/>
<wire x1="21.1138" y1="12.7" x2="18.8119" y2="12.7" width="0.6096" layer="1"/>
<polygon width="0.6096" layer="1">
<vertex x="0.381" y="25.908"/>
<vertex x="82.169" y="25.908"/>
<vertex x="82.169" y="0.381"/>
<vertex x="0.381" y="0.381"/>
</polygon>
<polygon width="0.6096" layer="16">
<vertex x="0.381" y="25.908"/>
<vertex x="82.169" y="25.908"/>
<vertex x="82.169" y="0.381"/>
<vertex x="0.381" y="0.381"/>
</polygon>
<via x="7.62" y="17.78" extent="1-16" drill="0.6"/>
<via x="7.62" y="16.51" extent="1-16" drill="0.6"/>
<via x="2.54" y="3.81" extent="1-16" drill="0.6"/>
<via x="2.54" y="2.54" extent="1-16" drill="0.6"/>
<via x="3.81" y="2.54" extent="1-16" drill="0.6"/>
<via x="33.02" y="15.24" extent="1-16" drill="0.6"/>
<via x="35.56" y="15.24" extent="1-16" drill="0.6"/>
<via x="49.53" y="15.24" extent="1-16" drill="0.6"/>
<via x="46.99" y="15.24" extent="1-16" drill="0.6"/>
<via x="44.45" y="15.24" extent="1-16" drill="0.6"/>
<via x="38.1" y="15.24" extent="1-16" drill="0.6"/>
<via x="74.93" y="17.78" extent="1-16" drill="0.6"/>
<via x="74.93" y="16.51" extent="1-16" drill="0.6"/>
<via x="80.01" y="3.81" extent="1-16" drill="0.6"/>
<via x="80.01" y="2.54" extent="1-16" drill="0.6"/>
<via x="78.74" y="2.54" extent="1-16" drill="0.6"/>
<contactref element="X2" pad="4"/>
<contactref element="X2" pad="5"/>
<contactref element="X2" pad="6"/>
<contactref element="X2" pad="7"/>
<contactref element="X2" pad="8"/>
<contactref element="X2" pad="10"/>
<contactref element="X2" pad="11"/>
<contactref element="SV1" pad="7"/>
<contactref element="SV1" pad="10"/>
<contactref element="SV1" pad="2"/>
<contactref element="SV1" pad="4"/>
<contactref element="SV1" pad="6"/>
<wire x1="74.93" y1="16.51" x2="74.93" y2="17.78" width="0" layer="19" extent="1-1"/>
<wire x1="69.6198" y1="15.24" x2="74.93" y2="16.51" width="0" layer="19" extent="1-1"/>
<wire x1="70.7708" y1="12.7" x2="69.6198" y2="15.24" width="0" layer="19" extent="1-1"/>
<wire x1="68.4689" y1="12.7" x2="70.7708" y2="12.7" width="0" layer="19" extent="1-1"/>
<wire x1="65.016" y1="15.24" x2="68.4689" y2="12.7" width="0" layer="19" extent="1-1"/>
<wire x1="62.7141" y1="15.24" x2="65.016" y2="15.24" width="0" layer="19" extent="1-1"/>
<wire x1="60.4122" y1="15.24" x2="62.7141" y2="15.24" width="0" layer="19" extent="1-1"/>
<wire x1="61.5631" y1="17.78" x2="62.7141" y2="15.24" width="0" layer="19" extent="1-1"/>
<wire x1="69.85" y1="6.35" x2="70.7708" y2="12.7" width="0" layer="19" extent="1-1"/>
<wire x1="72.39" y1="6.35" x2="69.85" y2="6.35" width="0" layer="19" extent="1-1"/>
<wire x1="67.31" y1="6.35" x2="69.85" y2="6.35" width="0" layer="19" extent="1-1"/>
<wire x1="74.93" y1="3.81" x2="72.39" y2="6.35" width="0" layer="19" extent="1-1"/>
<wire x1="77.47" y1="6.35" x2="74.93" y2="3.81" width="0" layer="19" extent="1-1"/>
<wire x1="80.01" y1="3.81" x2="77.47" y2="6.35" width="0" layer="19" extent="1-1"/>
<wire x1="80.01" y1="2.54" x2="80.01" y2="3.81" width="0" layer="19" extent="1-1"/>
<wire x1="78.74" y1="2.54" x2="80.01" y2="2.54" width="0" layer="19" extent="1-1"/>
<wire x1="49.53" y1="15.24" x2="60.4122" y2="15.24" width="0" layer="19" extent="1-1"/>
<wire x1="46.99" y1="15.24" x2="49.53" y2="15.24" width="0" layer="19" extent="1-1"/>
<wire x1="44.45" y1="15.24" x2="46.99" y2="15.24" width="0" layer="19" extent="1-1"/>
<wire x1="38.1" y1="15.24" x2="44.45" y2="15.24" width="0" layer="19" extent="1-1"/>
<wire x1="35.56" y1="15.24" x2="38.1" y2="15.24" width="0" layer="19" extent="1-1"/>
<wire x1="33.02" y1="15.24" x2="35.56" y2="15.24" width="0" layer="19" extent="1-1"/>
<wire x1="21.1138" y1="12.7" x2="33.02" y2="15.24" width="0" layer="19" extent="1-1"/>
<wire x1="19.9628" y1="15.24" x2="21.1138" y2="12.7" width="0" layer="19" extent="1-1"/>
<wire x1="15.359" y1="15.24" x2="18.8119" y2="12.7" width="0" layer="19" extent="1-1"/>
<wire x1="11.9061" y1="17.78" x2="13.0571" y2="15.24" width="0" layer="19" extent="1-1"/>
<wire x1="7.62" y1="16.51" x2="10.7552" y2="15.24" width="0" layer="19" extent="1-1"/>
<wire x1="7.62" y1="17.78" x2="7.62" y2="16.51" width="0" layer="19" extent="1-1"/>
<wire x1="19.05" y1="6.35" x2="18.8119" y2="12.7" width="0" layer="19" extent="1-1"/>
<wire x1="19.05" y1="3.81" x2="19.05" y2="6.35" width="0" layer="19" extent="1-1"/>
<wire x1="8.89" y1="6.35" x2="10.7552" y2="15.24" width="0" layer="19" extent="1-1"/>
<wire x1="8.89" y1="3.81" x2="8.89" y2="6.35" width="0" layer="19" extent="1-1"/>
<wire x1="3.81" y1="2.54" x2="8.89" y2="3.81" width="0" layer="19" extent="1-1"/>
<wire x1="2.54" y1="2.54" x2="3.81" y2="2.54" width="0" layer="19" extent="1-1"/>
<wire x1="2.54" y1="3.81" x2="2.54" y2="2.54" width="0" layer="19" extent="1-1"/>
</signal>
<signal name="N$1">
<contactref element="SV2" pad="5"/>
<contactref element="R2" pad="2"/>
<wire x1="43.5" y1="8.89" x2="16.51" y2="8.89" width="0.6096" layer="1"/>
<wire x1="16.51" y1="8.89" x2="15.24" y2="7.62" width="0.6096" layer="1"/>
<wire x1="15.24" y1="7.62" x2="15.24" y2="5.08" width="0.6096" layer="1"/>
<wire x1="15.24" y1="5.08" x2="13.97" y2="3.81" width="0.6096" layer="1"/>
</signal>
<signal name="N$2">
<contactref element="SV2" pad="3"/>
<contactref element="R1" pad="2"/>
<wire x1="38.42" y1="10.16" x2="15.24" y2="10.16" width="0.6096" layer="1"/>
<wire x1="15.24" y1="10.16" x2="12.7" y2="7.62" width="0.6096" layer="1"/>
<wire x1="12.7" y1="7.62" x2="12.7" y2="5.08" width="0.6096" layer="1"/>
<wire x1="12.7" y1="5.08" x2="11.43" y2="3.81" width="0.6096" layer="1"/>
</signal>
<signal name="N$3">
<contactref element="SV2" pad="7"/>
<contactref element="R3" pad="2"/>
<wire x1="38.42" y1="7.62" x2="18.415" y2="7.62" width="0.6096" layer="1"/>
<wire x1="18.415" y1="7.62" x2="17.78" y2="6.985" width="0.6096" layer="1"/>
<wire x1="17.78" y1="6.985" x2="17.78" y2="5.08" width="0.6096" layer="1"/>
<wire x1="17.78" y1="5.08" x2="16.51" y2="3.81" width="0.6096" layer="1"/>
</signal>
<signal name="N$4">
<contactref element="SV2" pad="11"/>
<contactref element="R5" pad="2"/>
<wire x1="38.42" y1="5.08" x2="29.21" y2="5.08" width="0.6096" layer="1"/>
<wire x1="29.21" y1="5.08" x2="26.67" y2="2.54" width="0.6096" layer="1"/>
<wire x1="26.67" y1="2.54" x2="22.86" y2="2.54" width="0.6096" layer="1"/>
<wire x1="22.86" y1="2.54" x2="21.59" y2="3.81" width="0.6096" layer="1"/>
</signal>
<signal name="N$5">
<contactref element="SV2" pad="13"/>
<contactref element="R4" pad="2"/>
<wire x1="43.5" y1="6.35" x2="26.67" y2="6.35" width="0.6096" layer="1"/>
<wire x1="26.67" y1="6.35" x2="24.13" y2="3.81" width="0.6096" layer="1"/>
</signal>
<signal name="X9">
<contactref element="X1" pad="9"/>
<contactref element="X2" pad="9"/>
<wire x1="67.3179" y1="15.24" x2="66.0479" y2="16.51" width="0.6096" layer="1"/>
<wire x1="66.0479" y1="16.51" x2="66.04" y2="16.51" width="0.1524" layer="1"/>
<wire x1="18.9309" y1="16.51" x2="17.6609" y2="15.24" width="0.6096" layer="1"/>
<wire x1="66.04" y1="16.51" x2="56.60078125" y2="16.51" width="0.6096" layer="1"/>
<wire x1="56.60078125" y1="16.51" x2="54.87358125" y2="18.2372" width="0.6096" layer="1"/>
<wire x1="27.80341875" y1="18.2372" x2="26.07621875" y2="16.51" width="0.6096" layer="1"/>
<wire x1="26.07621875" y1="16.51" x2="18.9309" y2="16.51" width="0.6096" layer="1"/>
<wire x1="54.87358125" y1="18.2372" x2="27.80341875" y2="18.2372" width="0.6096" layer="1"/>
</signal>
<signal name="X12">
<contactref element="X1" pad="12"/>
<contactref element="X2" pad="12"/>
<wire x1="15.05509375" y1="19.05" x2="14.208" y2="18.20290625" width="0.6096" layer="1"/>
<wire x1="14.208" y1="17.78" x2="14.208" y2="18.20290625" width="0.6096" layer="1"/>
<wire x1="15.05509375" y1="19.05" x2="63.01790625" y2="19.05" width="0.6096" layer="1"/>
<wire x1="63.865" y1="17.78" x2="63.865" y2="18.20290625" width="0.6096" layer="1"/>
<wire x1="63.865" y1="18.20290625" x2="63.01790625" y2="19.05" width="0.6096" layer="1"/>
</signal>
<signal name="X15">
<contactref element="X1" pad="15"/>
<contactref element="X2" pad="15"/>
<wire x1="70.7707" y1="17.78" x2="70.24689375" y2="17.78" width="0.6096" layer="16"/>
<wire x1="70.24689375" y1="17.78" x2="68.98959375" y2="16.5227" width="0.6096" layer="16"/>
<wire x1="68.98959375" y1="16.5227" x2="59.15348125" y2="16.5227" width="0.6096" layer="16"/>
<wire x1="59.15348125" y1="16.5227" x2="54.87358125" y2="12.2428" width="0.6096" layer="16"/>
<via x="25.4" y="17.78" extent="1-16" drill="0.6"/>
<wire x1="27.80341875" y1="12.2428" x2="26.0477" y2="13.99851875" width="0.6096" layer="16"/>
<wire x1="26.0477" y1="17.1323" x2="25.4" y2="17.78" width="0.6096" layer="16"/>
<wire x1="26.0477" y1="13.99851875" x2="26.0477" y2="17.1323" width="0.6096" layer="16"/>
<wire x1="25.4" y1="17.78" x2="21.1137" y2="17.78" width="0.6096" layer="1"/>
<wire x1="54.87358125" y1="12.2428" x2="27.80341875" y2="12.2428" width="0.6096" layer="16"/>
</signal>
</signals>
<mfgpreviewcolors>
<mfgpreviewcolor name="soldermaskcolor" color="0xC8008000"/>
<mfgpreviewcolor name="silkscreencolor" color="0xFFFEFEFE"/>
<mfgpreviewcolor name="backgroundcolor" color="0xFF282828"/>
<mfgpreviewcolor name="coppercolor" color="0xFFFFBF00"/>
<mfgpreviewcolor name="substratecolor" color="0xFF786E46"/>
</mfgpreviewcolors>
<errors>
<approved hash="19,16,aa7ae3d02df6621d"/>
<approved hash="19,16,64fd2ddefa38b55a"/>
<approved hash="19,16,28f8604b4dad035f"/>
<approved hash="19,16,9c81d4b69410da66"/>
</errors>
</board>
</drawing>
<compatibility>
<note version="6.3" minversion="6.2.2" severity="warning">
Since Version 6.2.2 text objects can contain more than one line,
which will not be processed correctly with this version.
</note>
</compatibility>
</eagle>
